{"failedCount":0,"prefixedPath":"src\/test\/java\/tests\/users.feature","packageQualifiedName":"src.test.java.tests.users","loopIndex":-1,"relativePath":"src\/test\/java\/tests\/users.feature","scenarioResults":[{"sectionIndex":0,"stepResults":[{"result":{"nanos":47615141,"millis":47.615141,"status":"passed"},"step":{"background":true,"line":4,"prefix":"*","index":0,"text":"url 'https:\/\/reqres.in\/api'"}},{"result":{"nanos":522274,"millis":0.522274,"status":"passed"},"step":{"line":7,"prefix":"Given","index":0,"text":"path '\/users'"}},{"result":{"nanos":1188921,"millis":1.188921,"status":"passed"},"step":{"line":8,"prefix":"And","index":1,"text":"param page = 2"}},{"result":{"nanos":478330475,"millis":478.330475,"status":"passed"},"step":{"line":9,"prefix":"When","index":2,"text":"method GET"},"stepLog":"15:55:29.326 request:\n1 > GET https:\/\/reqres.in\/api\/users?page=2\n1 > Host: reqres.in\n1 > Connection: Keep-Alive\n1 > User-Agent: Apache-HttpClient\/4.5.13 (Java\/17.0.2)\n1 > Accept-Encoding: gzip,deflate\n\n\n15:55:29.604 response time in milliseconds: 275\n1 < 200\n1 < Date: Tue, 01 Mar 2022 14:55:29 GMT\n1 < Content-Type: application\/json; charset=utf-8\n1 < Transfer-Encoding: chunked\n1 < Connection: keep-alive\n1 < X-Powered-By: Express\n1 < Access-Control-Allow-Origin: *\n1 < Etag: W\/\"406-ut0vzoCuidvyMf8arZpMpJ6ZRDw\"\n1 < Via: 1.1 vegur\n1 < Cache-Control: max-age=14400\n1 < CF-Cache-Status: HIT\n1 < Age: 4557\n1 < Expect-CT: max-age=604800, report-uri=\"https:\/\/report-uri.cloudflare.com\/cdn-cgi\/beacon\/expect-ct\"\n1 < Report-To: {\"endpoints\":[{\"url\":\"https:\\\/\\\/a.nel.cloudflare.com\\\/report\\\/v3?s=%2Fw7NKp52Feti2JQ9EeEaKMm7bW5lIWaGCF%2BxTNu6BLVrmuTtk0CDsgk4q1XOKjRQPHGRsOLKP9unX2dt9gOc04wApeLmCoDf4J2qYAY2sgNSBp63inlignR2fww%3D\"}],\"group\":\"cf-nel\",\"max_age\":604800}\n1 < NEL: {\"success_fraction\":0,\"report_to\":\"cf-nel\",\"max_age\":604800}\n1 < Vary: Accept-Encoding\n1 < Server: cloudflare\n1 < CF-RAY: 6e52bbe20bd87375-MRS\n1 < alt-svc: h3=\":443\"; ma=86400, h3-29=\":443\"; ma=86400\n{\"page\":2,\"per_page\":6,\"total\":12,\"total_pages\":2,\"data\":[{\"id\":7,\"email\":\"michael.lawson@reqres.in\",\"first_name\":\"Michael\",\"last_name\":\"Lawson\",\"avatar\":\"https:\/\/reqres.in\/img\/faces\/7-image.jpg\"},{\"id\":8,\"email\":\"lindsay.ferguson@reqres.in\",\"first_name\":\"Lindsay\",\"last_name\":\"Ferguson\",\"avatar\":\"https:\/\/reqres.in\/img\/faces\/8-image.jpg\"},{\"id\":9,\"email\":\"tobias.funke@reqres.in\",\"first_name\":\"Tobias\",\"last_name\":\"Funke\",\"avatar\":\"https:\/\/reqres.in\/img\/faces\/9-image.jpg\"},{\"id\":10,\"email\":\"byron.fields@reqres.in\",\"first_name\":\"Byron\",\"last_name\":\"Fields\",\"avatar\":\"https:\/\/reqres.in\/img\/faces\/10-image.jpg\"},{\"id\":11,\"email\":\"george.edwards@reqres.in\",\"first_name\":\"George\",\"last_name\":\"Edwards\",\"avatar\":\"https:\/\/reqres.in\/img\/faces\/11-image.jpg\"},{\"id\":12,\"email\":\"rachel.howell@reqres.in\",\"first_name\":\"Rachel\",\"last_name\":\"Howell\",\"avatar\":\"https:\/\/reqres.in\/img\/faces\/12-image.jpg\"}],\"support\":{\"url\":\"https:\/\/reqres.in\/#support-heading\",\"text\":\"To keep ReqRes free, contributions towards server costs are appreciated!\"}}\n\n"},{"result":{"nanos":20246,"millis":0.020246,"status":"passed"},"step":{"line":10,"prefix":"Then","index":3,"text":"status 200"}},{"result":{"nanos":24116058,"millis":24.116058,"status":"passed"},"step":{"line":11,"prefix":"And","index":4,"text":"def user = response.data[1]"}},{"result":{"nanos":18565328,"millis":18.565328,"status":"passed"},"step":{"line":12,"prefix":"And","index":5,"text":"match response.data[1].id == 8"}}],"executorName":"main","line":6,"name":"'Users List'","description":"","durationMillis":570.358443,"startTime":1646146529086,"failed":false,"refId":"[1:6]","endTime":1646146529668,"exampleIndex":-1}],"callDepth":0,"name":"'Karate demo tests'","description":"","resultDate":"2022-03-01 03:55:29 pm","durationMillis":570.358443,"passedCount":1}