{"failedCount":0,"prefixedPath":"src\/test\/java\/tests\/users.feature","packageQualifiedName":"src.test.java.tests.users","loopIndex":-1,"relativePath":"src\/test\/java\/tests\/users.feature","scenarioResults":[{"sectionIndex":0,"stepResults":[{"result":{"nanos":59699690,"millis":59.69969,"status":"passed"},"step":{"background":true,"line":4,"prefix":"*","index":0,"text":"url 'https:\/\/reqres.in\/api'"}},{"result":{"nanos":466632,"millis":0.466632,"status":"passed"},"step":{"line":7,"prefix":"Given","index":0,"text":"path '\/users'"}},{"result":{"nanos":1088793,"millis":1.088793,"status":"passed"},"step":{"line":8,"prefix":"And","index":1,"text":"param page = 2"}},{"result":{"nanos":467744964,"millis":467.744964,"status":"passed"},"step":{"line":9,"prefix":"When","index":2,"text":"method GET"},"stepLog":"18:31:30.204 request:\n1 > GET https:\/\/reqres.in\/api\/users?page=2\n1 > Host: reqres.in\n1 > Connection: Keep-Alive\n1 > User-Agent: Apache-HttpClient\/4.5.13 (Java\/17.0.2)\n1 > Accept-Encoding: gzip,deflate\n\n\n18:31:30.476 response time in milliseconds: 267\n1 < 200\n1 < Date: Tue, 01 Mar 2022 17:31:30 GMT\n1 < Content-Type: application\/json; charset=utf-8\n1 < Transfer-Encoding: chunked\n1 < Connection: keep-alive\n1 < X-Powered-By: Express\n1 < Access-Control-Allow-Origin: *\n1 < Etag: W\/\"406-ut0vzoCuidvyMf8arZpMpJ6ZRDw\"\n1 < Via: 1.1 vegur\n1 < Cache-Control: max-age=14400\n1 < CF-Cache-Status: HIT\n1 < Age: 2365\n1 < Expect-CT: max-age=604800, report-uri=\"https:\/\/report-uri.cloudflare.com\/cdn-cgi\/beacon\/expect-ct\"\n1 < Report-To: {\"endpoints\":[{\"url\":\"https:\\\/\\\/a.nel.cloudflare.com\\\/report\\\/v3?s=6rRrxDIi0DsoH%2Bw8Jxft9zTbEVEDjLt8PQvdYmeNYlOFhgXQ5sbdVMZp1wSq8yw0pQW6p1rpZ%2FqfvuckIHdkQPgdyJW4fG%2Bcq5dP9BRV1oG7QPW7IbVgZUyur%2Fs%3D\"}],\"group\":\"cf-nel\",\"max_age\":604800}\n1 < NEL: {\"success_fraction\":0,\"report_to\":\"cf-nel\",\"max_age\":604800}\n1 < Vary: Accept-Encoding\n1 < Server: cloudflare\n1 < CF-RAY: 6e53a06bdc72e67c-LHR\n1 < alt-svc: h3=\":443\"; ma=86400, h3-29=\":443\"; ma=86400\n{\"page\":2,\"per_page\":6,\"total\":12,\"total_pages\":2,\"data\":[{\"id\":7,\"email\":\"michael.lawson@reqres.in\",\"first_name\":\"Michael\",\"last_name\":\"Lawson\",\"avatar\":\"https:\/\/reqres.in\/img\/faces\/7-image.jpg\"},{\"id\":8,\"email\":\"lindsay.ferguson@reqres.in\",\"first_name\":\"Lindsay\",\"last_name\":\"Ferguson\",\"avatar\":\"https:\/\/reqres.in\/img\/faces\/8-image.jpg\"},{\"id\":9,\"email\":\"tobias.funke@reqres.in\",\"first_name\":\"Tobias\",\"last_name\":\"Funke\",\"avatar\":\"https:\/\/reqres.in\/img\/faces\/9-image.jpg\"},{\"id\":10,\"email\":\"byron.fields@reqres.in\",\"first_name\":\"Byron\",\"last_name\":\"Fields\",\"avatar\":\"https:\/\/reqres.in\/img\/faces\/10-image.jpg\"},{\"id\":11,\"email\":\"george.edwards@reqres.in\",\"first_name\":\"George\",\"last_name\":\"Edwards\",\"avatar\":\"https:\/\/reqres.in\/img\/faces\/11-image.jpg\"},{\"id\":12,\"email\":\"rachel.howell@reqres.in\",\"first_name\":\"Rachel\",\"last_name\":\"Howell\",\"avatar\":\"https:\/\/reqres.in\/img\/faces\/12-image.jpg\"}],\"support\":{\"url\":\"https:\/\/reqres.in\/#support-heading\",\"text\":\"To keep ReqRes free, contributions towards server costs are appreciated!\"}}\n\n"},{"result":{"nanos":18871,"millis":0.018871,"status":"passed"},"step":{"line":10,"prefix":"Then","index":3,"text":"status 200"}},{"result":{"nanos":43422083,"millis":43.422083,"status":"passed"},"step":{"line":11,"prefix":"And","index":4,"text":"def user = get[0] response.data[?(@.id==11)]"}},{"result":{"nanos":6163930,"millis":6.16393,"status":"passed"},"step":{"line":12,"prefix":"And","index":5,"text":"match user.id == 11"}},{"result":{"nanos":836652,"millis":0.836652,"status":"passed"},"step":{"line":13,"prefix":"And","index":6,"text":"match user.email == 'george.edwards@reqres.in'"}},{"result":{"nanos":682337,"millis":0.682337,"status":"passed"},"step":{"line":14,"prefix":"And","index":7,"text":"match user.first_name == 'George'"}},{"result":{"nanos":511550,"millis":0.51155,"status":"passed"},"step":{"line":15,"prefix":"And","index":8,"text":"match user.last_name == 'Edwards'"}},{"result":{"nanos":591832,"millis":0.591832,"status":"passed"},"step":{"line":16,"prefix":"And","index":9,"text":"match user.avatar == 'https:\/\/reqres.in\/img\/faces\/11-image.jpg'"}}],"executorName":"main","line":6,"name":"GET, LIST USERS","description":"","durationMillis":581.227334,"startTime":1646155889957,"failed":false,"refId":"[1:6]","endTime":1646155890553,"exampleIndex":-1},{"sectionIndex":1,"stepResults":[{"result":{"nanos":441581,"millis":0.441581,"status":"passed"},"step":{"background":true,"line":4,"prefix":"*","index":0,"text":"url 'https:\/\/reqres.in\/api'"}},{"result":{"nanos":125810,"millis":0.12581,"status":"passed"},"step":{"line":20,"prefix":"Given","index":0,"text":"path '\/users'"}},{"result":{"nanos":251163,"millis":0.251163,"status":"passed"},"step":{"line":21,"prefix":"And","index":1,"text":"def userId = 11"}},{"result":{"nanos":12593039,"millis":12.593039,"status":"passed"},"step":{"line":22,"prefix":"And","index":2,"text":"path '\/' + userId"}},{"result":{"nanos":167512861,"millis":167.512861,"status":"passed"},"step":{"line":23,"prefix":"When","index":3,"text":"method GET"},"stepLog":"18:31:30.576 request:\n1 > GET https:\/\/reqres.in\/api\/users\/11\n1 > Host: reqres.in\n1 > Connection: Keep-Alive\n1 > User-Agent: Apache-HttpClient\/4.5.13 (Java\/17.0.2)\n1 > Accept-Encoding: gzip,deflate\n\n\n18:31:30.742 response time in milliseconds: 165\n1 < 200\n1 < Date: Tue, 01 Mar 2022 17:31:30 GMT\n1 < Content-Type: application\/json; charset=utf-8\n1 < Transfer-Encoding: chunked\n1 < Connection: keep-alive\n1 < X-Powered-By: Express\n1 < Access-Control-Allow-Origin: *\n1 < Etag: W\/\"11e-\/ce0hUxrHiq225jAM88pfKCXCL4\"\n1 < Via: 1.1 vegur\n1 < Cache-Control: max-age=14400\n1 < CF-Cache-Status: HIT\n1 < Age: 285\n1 < Expect-CT: max-age=604800, report-uri=\"https:\/\/report-uri.cloudflare.com\/cdn-cgi\/beacon\/expect-ct\"\n1 < Report-To: {\"endpoints\":[{\"url\":\"https:\\\/\\\/a.nel.cloudflare.com\\\/report\\\/v3?s=633yCxH6gV%2BESs4JgUrCvAmicd%2B7zlcSPL1wtlc7Ro7RYaYj2LnSejjh7jiL0CntV2xXhiV4CRa3KL%2FyMMOene9RQ16Pafy3Z5mjtpQlQL3va09v%2FNOeJmJCkXQ%3D\"}],\"group\":\"cf-nel\",\"max_age\":604800}\n1 < NEL: {\"success_fraction\":0,\"report_to\":\"cf-nel\",\"max_age\":604800}\n1 < Vary: Accept-Encoding\n1 < Server: cloudflare\n1 < CF-RAY: 6e53a06d8f59e658-LHR\n1 < alt-svc: h3=\":443\"; ma=86400, h3-29=\":443\"; ma=86400\n{\"data\":{\"id\":11,\"email\":\"george.edwards@reqres.in\",\"first_name\":\"George\",\"last_name\":\"Edwards\",\"avatar\":\"https:\/\/reqres.in\/img\/faces\/11-image.jpg\"},\"support\":{\"url\":\"https:\/\/reqres.in\/#support-heading\",\"text\":\"To keep ReqRes free, contributions towards server costs are appreciated!\"}}\n\n"},{"result":{"nanos":14106,"millis":0.014106,"status":"passed"},"step":{"line":24,"prefix":"Then","index":4,"text":"status 200"}},{"result":{"nanos":14907423,"millis":14.907423,"status":"passed"},"step":{"line":25,"prefix":"And","index":5,"text":"def user = response.data"}},{"result":{"nanos":698562,"millis":0.698562,"status":"passed"},"step":{"line":26,"prefix":"And","index":6,"text":"match user.email == 'george.edwards@reqres.in'"}},{"result":{"nanos":399807,"millis":0.399807,"status":"passed"},"step":{"line":27,"prefix":"And","index":7,"text":"match user.first_name == 'George'"}},{"result":{"nanos":403440,"millis":0.40344,"status":"passed"},"step":{"line":28,"prefix":"And","index":8,"text":"match user.last_name == 'Edwards'"}},{"result":{"nanos":364096,"millis":0.364096,"status":"passed"},"step":{"line":29,"prefix":"And","index":9,"text":"match user.avatar == 'https:\/\/reqres.in\/img\/faces\/11-image.jpg'"}},{"result":{"nanos":2760596,"millis":2.760596,"status":"passed"},"step":{"line":30,"prefix":"And","index":10,"text":"match response.support != null"}}],"line":34,"description":"","durationMillis":200.472484,"failed":false,"executorName":"main","name":"GET, SINGLE USER","startTime":1646155890561,"refId":"[2.1:34]","endTime":1646155890763,"exampleData":{"userId":"11","email":"'george.edwards@reqres.in'","firstName":"'George'","last_name":"'Edwards'","avatar":"'https:\/\/reqres.in\/img\/faces\/11-image.jpg'"},"exampleIndex":0},{"sectionIndex":2,"stepResults":[{"result":{"nanos":165335,"millis":0.165335,"status":"passed"},"step":{"background":true,"line":4,"prefix":"*","index":0,"text":"url 'https:\/\/reqres.in\/api'"}},{"result":{"nanos":253978,"millis":0.253978,"status":"passed"},"step":{"line":37,"prefix":"Given","index":0,"text":"path '\/users'"}},{"result":{"nanos":35751990,"millis":35.75199,"status":"passed"},"step":{"line":38,"prefix":"And","index":1,"text":"def newRequest = read(\"..\/resources\/createRequest.json\")"}},{"result":{"nanos":421943,"millis":0.421943,"status":"passed"},"step":{"line":39,"prefix":"And","index":2,"text":"request newRequest"}},{"result":{"nanos":223514712,"millis":223.514712,"status":"passed"},"step":{"line":40,"prefix":"When","index":3,"text":"method POST"},"stepLog":"18:31:30.845 request:\n1 > POST https:\/\/reqres.in\/api\/users\n1 > Content-Type: application\/json; charset=UTF-8\n1 > Content-Length: 34\n1 > Host: reqres.in\n1 > Connection: Keep-Alive\n1 > User-Agent: Apache-HttpClient\/4.5.13 (Java\/17.0.2)\n1 > Accept-Encoding: gzip,deflate\n{\"name\":\"morpheus\",\"job\":\"leader\"}\n\n18:31:31.027 response time in milliseconds: 182\n1 < 201\n1 < Date: Tue, 01 Mar 2022 17:31:31 GMT\n1 < Content-Type: application\/json; charset=utf-8\n1 < Content-Length: 84\n1 < Connection: keep-alive\n1 < X-Powered-By: Express\n1 < Access-Control-Allow-Origin: *\n1 < Etag: W\/\"54-kf7k8d8YXL5eHXpWhws7k4SSb\/M\"\n1 < Via: 1.1 vegur\n1 < CF-Cache-Status: DYNAMIC\n1 < Expect-CT: max-age=604800, report-uri=\"https:\/\/report-uri.cloudflare.com\/cdn-cgi\/beacon\/expect-ct\"\n1 < Report-To: {\"endpoints\":[{\"url\":\"https:\\\/\\\/a.nel.cloudflare.com\\\/report\\\/v3?s=JsIJ7nb%2BILiABiia0InY%2Bf8n8hmI6jV8xYXwckdra6AaM1Z3r7DHmnK394%2FzS8jxrZM%2FQ3B8%2Fv6tnZKsQ90sF6DpjE3DkkHPOniPLkmDgBQUZb1Gfq%2FqQJVJJfw%3D\"}],\"group\":\"cf-nel\",\"max_age\":604800}\n1 < NEL: {\"success_fraction\":0,\"report_to\":\"cf-nel\",\"max_age\":604800}\n1 < Server: cloudflare\n1 < CF-RAY: 6e53a06f2870743f-LHR\n1 < alt-svc: h3=\":443\"; ma=86400, h3-29=\":443\"; ma=86400\n{\"name\":\"morpheus\",\"job\":\"leader\",\"id\":\"270\",\"createdAt\":\"2022-03-01T17:31:31.104Z\"}\n\n"},{"result":{"nanos":15541,"millis":0.015541,"status":"passed"},"step":{"line":41,"prefix":"Then","index":4,"text":"status 201"}},{"result":{"nanos":15306072,"millis":15.306072,"status":"passed"},"step":{"line":42,"prefix":"And","index":5,"text":"print response"},"stepLog":"18:31:31.044 [print] {\n  \"name\": \"morpheus\",\n  \"job\": \"leader\",\n  \"id\": \"270\",\n  \"createdAt\": \"2022-03-01T17:31:31.104Z\"\n}\n \n"}],"executorName":"main","line":36,"name":"POST, CREATE","description":"","durationMillis":275.429571,"startTime":1646155890767,"failed":false,"refId":"[3:36]","endTime":1646155891044,"exampleIndex":-1}],"callDepth":0,"name":"'Karate demo tests'","description":"","resultDate":"2022-03-01 06:31:31 pm","durationMillis":1057.129389,"passedCount":3}