{"failedCount":0,"prefixedPath":"src\/test\/java\/tests\/users.feature","packageQualifiedName":"src.test.java.tests.users","loopIndex":-1,"relativePath":"src\/test\/java\/tests\/users.feature","scenarioResults":[{"sectionIndex":0,"stepResults":[{"result":{"nanos":52145309,"millis":52.145309,"status":"passed"},"step":{"background":true,"line":4,"prefix":"*","index":0,"text":"url 'https:\/\/reqres.in\/api'"}},{"result":{"nanos":801276,"millis":0.801276,"status":"passed"},"step":{"line":7,"prefix":"Given","index":0,"text":"path '\/users'"}},{"result":{"nanos":1468199,"millis":1.468199,"status":"passed"},"step":{"line":8,"prefix":"And","index":1,"text":"param page = 2"}},{"result":{"nanos":576716043,"millis":576.716043,"status":"passed"},"step":{"line":9,"prefix":"When","index":2,"text":"method GET"},"stepLog":"18:34:32.613 request:\n1 > GET https:\/\/reqres.in\/api\/users?page=2\n1 > Host: reqres.in\n1 > Connection: Keep-Alive\n1 > User-Agent: Apache-HttpClient\/4.5.13 (Java\/17.0.2)\n1 > Accept-Encoding: gzip,deflate\n\n\n18:34:32.934 response time in milliseconds: 317\n1 < 200\n1 < Date: Tue, 01 Mar 2022 17:34:32 GMT\n1 < Content-Type: application\/json; charset=utf-8\n1 < Transfer-Encoding: chunked\n1 < Connection: keep-alive\n1 < X-Powered-By: Express\n1 < Access-Control-Allow-Origin: *\n1 < Etag: W\/\"406-ut0vzoCuidvyMf8arZpMpJ6ZRDw\"\n1 < Via: 1.1 vegur\n1 < Cache-Control: max-age=14400\n1 < CF-Cache-Status: HIT\n1 < Age: 6284\n1 < Expect-CT: max-age=604800, report-uri=\"https:\/\/report-uri.cloudflare.com\/cdn-cgi\/beacon\/expect-ct\"\n1 < Report-To: {\"endpoints\":[{\"url\":\"https:\\\/\\\/a.nel.cloudflare.com\\\/report\\\/v3?s=LjqOk7v25AcOSZaRCfOuAbRgL6zjaIVtQuzuzVb1dtFDS8ZvMcFIafkyFxShRXwpV88z6cdHptIZDvVHzP7iOgTDpY4zF%2BW36FBWpbFkk5Au5uEinf5jvtsUusE%3D\"}],\"group\":\"cf-nel\",\"max_age\":604800}\n1 < NEL: {\"success_fraction\":0,\"report_to\":\"cf-nel\",\"max_age\":604800}\n1 < Vary: Accept-Encoding\n1 < Server: cloudflare\n1 < CF-RAY: 6e53a4e03f617583-LHR\n1 < alt-svc: h3=\":443\"; ma=86400, h3-29=\":443\"; ma=86400\n{\"page\":2,\"per_page\":6,\"total\":12,\"total_pages\":2,\"data\":[{\"id\":7,\"email\":\"michael.lawson@reqres.in\",\"first_name\":\"Michael\",\"last_name\":\"Lawson\",\"avatar\":\"https:\/\/reqres.in\/img\/faces\/7-image.jpg\"},{\"id\":8,\"email\":\"lindsay.ferguson@reqres.in\",\"first_name\":\"Lindsay\",\"last_name\":\"Ferguson\",\"avatar\":\"https:\/\/reqres.in\/img\/faces\/8-image.jpg\"},{\"id\":9,\"email\":\"tobias.funke@reqres.in\",\"first_name\":\"Tobias\",\"last_name\":\"Funke\",\"avatar\":\"https:\/\/reqres.in\/img\/faces\/9-image.jpg\"},{\"id\":10,\"email\":\"byron.fields@reqres.in\",\"first_name\":\"Byron\",\"last_name\":\"Fields\",\"avatar\":\"https:\/\/reqres.in\/img\/faces\/10-image.jpg\"},{\"id\":11,\"email\":\"george.edwards@reqres.in\",\"first_name\":\"George\",\"last_name\":\"Edwards\",\"avatar\":\"https:\/\/reqres.in\/img\/faces\/11-image.jpg\"},{\"id\":12,\"email\":\"rachel.howell@reqres.in\",\"first_name\":\"Rachel\",\"last_name\":\"Howell\",\"avatar\":\"https:\/\/reqres.in\/img\/faces\/12-image.jpg\"}],\"support\":{\"url\":\"https:\/\/reqres.in\/#support-heading\",\"text\":\"To keep ReqRes free, contributions towards server costs are appreciated!\"}}\n\n"},{"result":{"nanos":21621,"millis":0.021621,"status":"passed"},"step":{"line":10,"prefix":"Then","index":3,"text":"status 200"}},{"result":{"nanos":37353272,"millis":37.353272,"status":"passed"},"step":{"line":11,"prefix":"And","index":4,"text":"def user = get[0] response.data[?(@.id==11)]"}},{"result":{"nanos":6130492,"millis":6.130492,"status":"passed"},"step":{"line":12,"prefix":"And","index":5,"text":"match user.id == 11"}},{"result":{"nanos":964617,"millis":0.964617,"status":"passed"},"step":{"line":13,"prefix":"And","index":6,"text":"match user.email == 'george.edwards@reqres.in'"}},{"result":{"nanos":824274,"millis":0.824274,"status":"passed"},"step":{"line":14,"prefix":"And","index":7,"text":"match user.first_name == 'George'"}},{"result":{"nanos":652425,"millis":0.652425,"status":"passed"},"step":{"line":15,"prefix":"And","index":8,"text":"match user.last_name == 'Edwards'"}},{"result":{"nanos":606501,"millis":0.606501,"status":"passed"},"step":{"line":16,"prefix":"And","index":9,"text":"match user.avatar == 'https:\/\/reqres.in\/img\/faces\/11-image.jpg'"}}],"executorName":"main","line":6,"name":"GET, LIST USERS","description":"","durationMillis":677.684029,"startTime":1646156072306,"failed":false,"refId":"[1:6]","endTime":1646156073005,"exampleIndex":-1},{"sectionIndex":1,"stepResults":[{"result":{"nanos":442699,"millis":0.442699,"status":"passed"},"step":{"background":true,"line":4,"prefix":"*","index":0,"text":"url 'https:\/\/reqres.in\/api'"}},{"result":{"nanos":123325,"millis":0.123325,"status":"passed"},"step":{"line":20,"prefix":"Given","index":0,"text":"path '\/users'"}},{"result":{"nanos":226037,"millis":0.226037,"status":"passed"},"step":{"line":21,"prefix":"And","index":1,"text":"def userId = 11"}},{"result":{"nanos":11775296,"millis":11.775296,"status":"passed"},"step":{"line":22,"prefix":"And","index":2,"text":"path '\/' + userId"}},{"result":{"nanos":155785974,"millis":155.785974,"status":"passed"},"step":{"line":23,"prefix":"When","index":3,"text":"method GET"},"stepLog":"18:34:33.027 request:\n1 > GET https:\/\/reqres.in\/api\/users\/11\n1 > Host: reqres.in\n1 > Connection: Keep-Alive\n1 > User-Agent: Apache-HttpClient\/4.5.13 (Java\/17.0.2)\n1 > Accept-Encoding: gzip,deflate\n\n\n18:34:33.182 response time in milliseconds: 154\n1 < 200\n1 < Date: Tue, 01 Mar 2022 17:34:33 GMT\n1 < Content-Type: application\/json; charset=utf-8\n1 < Transfer-Encoding: chunked\n1 < Connection: keep-alive\n1 < X-Powered-By: Express\n1 < Access-Control-Allow-Origin: *\n1 < Etag: W\/\"11e-\/ce0hUxrHiq225jAM88pfKCXCL4\"\n1 < Via: 1.1 vegur\n1 < Cache-Control: max-age=14400\n1 < CF-Cache-Status: HIT\n1 < Age: 468\n1 < Expect-CT: max-age=604800, report-uri=\"https:\/\/report-uri.cloudflare.com\/cdn-cgi\/beacon\/expect-ct\"\n1 < Report-To: {\"endpoints\":[{\"url\":\"https:\\\/\\\/a.nel.cloudflare.com\\\/report\\\/v3?s=je8exNfJYLJcOpxAwLDC2QL9PZS%2BfPY5HUQe%2Berf3Br%2Fmtmo%2BDyg0grPIbQzMwYHpKlBpONvWAUmlTtPMaE61e8jIywfpMgvaEIZnWZBxePAWjkF3AVFx6kPl%2Bc%3D\"}],\"group\":\"cf-nel\",\"max_age\":604800}\n1 < NEL: {\"success_fraction\":0,\"report_to\":\"cf-nel\",\"max_age\":604800}\n1 < Vary: Accept-Encoding\n1 < Server: cloudflare\n1 < CF-RAY: 6e53a4e1dc49068e-LHR\n1 < alt-svc: h3=\":443\"; ma=86400, h3-29=\":443\"; ma=86400\n{\"data\":{\"id\":11,\"email\":\"george.edwards@reqres.in\",\"first_name\":\"George\",\"last_name\":\"Edwards\",\"avatar\":\"https:\/\/reqres.in\/img\/faces\/11-image.jpg\"},\"support\":{\"url\":\"https:\/\/reqres.in\/#support-heading\",\"text\":\"To keep ReqRes free, contributions towards server costs are appreciated!\"}}\n\n"},{"result":{"nanos":8084,"millis":0.008084,"status":"passed"},"step":{"line":24,"prefix":"Then","index":4,"text":"status 200"}},{"result":{"nanos":9891218,"millis":9.891218,"status":"passed"},"step":{"line":25,"prefix":"And","index":5,"text":"def user = response.data"}},{"result":{"nanos":543422,"millis":0.543422,"status":"passed"},"step":{"line":26,"prefix":"And","index":6,"text":"match user.email == 'george.edwards@reqres.in'"}},{"result":{"nanos":324727,"millis":0.324727,"status":"passed"},"step":{"line":27,"prefix":"And","index":7,"text":"match user.first_name == 'George'"}},{"result":{"nanos":339639,"millis":0.339639,"status":"passed"},"step":{"line":28,"prefix":"And","index":8,"text":"match user.last_name == 'Edwards'"}},{"result":{"nanos":287590,"millis":0.28759,"status":"passed"},"step":{"line":29,"prefix":"And","index":9,"text":"match user.avatar == 'https:\/\/reqres.in\/img\/faces\/11-image.jpg'"}},{"result":{"nanos":2385386,"millis":2.385386,"status":"passed"},"step":{"line":30,"prefix":"And","index":10,"text":"match response.support != null"}}],"line":34,"description":"","durationMillis":182.133397,"failed":false,"executorName":"main","name":"GET, SINGLE USER","startTime":1646156073013,"refId":"[2.1:34]","endTime":1646156073197,"exampleData":{"userId":"11","email":"'george.edwards@reqres.in'","firstName":"'George'","last_name":"'Edwards'","avatar":"'https:\/\/reqres.in\/img\/faces\/11-image.jpg'"},"exampleIndex":0},{"sectionIndex":2,"stepResults":[{"result":{"nanos":180244,"millis":0.180244,"status":"passed"},"step":{"background":true,"line":4,"prefix":"*","index":0,"text":"url 'https:\/\/reqres.in\/api'"}},{"result":{"nanos":112146,"millis":0.112146,"status":"passed"},"step":{"line":37,"prefix":"Given","index":0,"text":"path '\/users'"}},{"result":{"nanos":33603782,"millis":33.603782,"status":"passed"},"step":{"line":38,"prefix":"And","index":1,"text":"def newRequest = read(\"..\/resources\/createRequest.json\")"}},{"result":{"nanos":426905,"millis":0.426905,"status":"passed"},"step":{"line":39,"prefix":"And","index":2,"text":"request newRequest"}},{"result":{"nanos":207240918,"millis":207.240918,"status":"passed"},"step":{"line":40,"prefix":"When","index":3,"text":"method POST"},"stepLog":"18:34:33.270 request:\n1 > POST https:\/\/reqres.in\/api\/users\n1 > Content-Type: application\/json; charset=UTF-8\n1 > Content-Length: 34\n1 > Host: reqres.in\n1 > Connection: Keep-Alive\n1 > User-Agent: Apache-HttpClient\/4.5.13 (Java\/17.0.2)\n1 > Accept-Encoding: gzip,deflate\n{\"name\":\"morpheus\",\"job\":\"leader\"}\n\n18:34:33.442 response time in milliseconds: 172\n1 < 201\n1 < Date: Tue, 01 Mar 2022 17:34:33 GMT\n1 < Content-Type: application\/json; charset=utf-8\n1 < Content-Length: 84\n1 < Connection: keep-alive\n1 < X-Powered-By: Express\n1 < Access-Control-Allow-Origin: *\n1 < Etag: W\/\"54-Z7mSa6nfAB6WcNIz068vSselye8\"\n1 < Via: 1.1 vegur\n1 < CF-Cache-Status: DYNAMIC\n1 < Expect-CT: max-age=604800, report-uri=\"https:\/\/report-uri.cloudflare.com\/cdn-cgi\/beacon\/expect-ct\"\n1 < Report-To: {\"endpoints\":[{\"url\":\"https:\\\/\\\/a.nel.cloudflare.com\\\/report\\\/v3?s=1%2B9dCh4MISX01Rzl4k6YvYRcDGSriog9WJytbUOzzyeCKBgGwnyPrSrw0wNvNe22l27CrE1A3dcVGqA0bUB8p8nOXXnKuKTDBY5EhjwlclKXCQQNHEX5kld%2BY5A%3D\"}],\"group\":\"cf-nel\",\"max_age\":604800}\n1 < NEL: {\"success_fraction\":0,\"report_to\":\"cf-nel\",\"max_age\":604800}\n1 < Server: cloudflare\n1 < CF-RAY: 6e53a4e348ab76af-LHR\n1 < alt-svc: h3=\":443\"; ma=86400, h3-29=\":443\"; ma=86400\n{\"name\":\"morpheus\",\"job\":\"leader\",\"id\":\"148\",\"createdAt\":\"2022-03-01T17:34:33.518Z\"}\n\n"},{"result":{"nanos":10824,"millis":0.010824,"status":"passed"},"step":{"line":41,"prefix":"Then","index":4,"text":"status 201"}},{"result":{"nanos":10781197,"millis":10.781197,"status":"passed"},"step":{"line":42,"prefix":"And","index":5,"text":"print response"},"stepLog":"18:34:33.453 [print] {\n  \"name\": \"morpheus\",\n  \"job\": \"leader\",\n  \"id\": \"148\",\n  \"createdAt\": \"2022-03-01T17:34:33.518Z\"\n}\n \n"},{"result":{"nanos":789886,"millis":0.789886,"status":"passed"},"step":{"line":43,"prefix":"And","index":6,"text":"match response.name == 'morpheus'"}},{"result":{"nanos":628175,"millis":0.628175,"status":"passed"},"step":{"line":44,"prefix":"And","index":7,"text":"match response.job == 'leader'"}},{"result":{"nanos":420229,"millis":0.420229,"status":"passed"},"step":{"line":45,"prefix":"And","index":8,"text":"match response.id != null"}},{"result":{"nanos":611099,"millis":0.611099,"status":"passed"},"step":{"line":46,"prefix":"And","index":9,"text":"match response.createdAt != null"}}],"executorName":"main","line":36,"name":"POST, CREATE","description":"","durationMillis":254.805405,"startTime":1646156073201,"failed":false,"refId":"[3:36]","endTime":1646156073457,"exampleIndex":-1}],"callDepth":0,"name":"'Karate demo tests'","description":"","resultDate":"2022-03-01 06:34:33 pm","durationMillis":1114.622831,"passedCount":3}