{"failedCount":1,"prefixedPath":"src\/test\/java\/tests\/users.feature","packageQualifiedName":"src.test.java.tests.users","loopIndex":-1,"relativePath":"src\/test\/java\/tests\/users.feature","scenarioResults":[{"sectionIndex":0,"stepResults":[{"result":{"nanos":51887800,"millis":51.8878,"status":"passed"},"step":{"background":true,"line":4,"prefix":"*","index":0,"text":"url 'https:\/\/reqres.in\/api'"}},{"result":{"nanos":663248,"millis":0.663248,"status":"passed"},"step":{"line":7,"prefix":"Given","index":0,"text":"path '\/users'"}},{"result":{"nanos":1160908,"millis":1.160908,"status":"passed"},"step":{"line":8,"prefix":"And","index":1,"text":"param page = 2"}},{"result":{"nanos":490218665,"millis":490.218665,"status":"passed"},"step":{"line":9,"prefix":"When","index":2,"text":"method GET"},"stepLog":"18:33:44.705 request:\n1 > GET https:\/\/reqres.in\/api\/users?page=2\n1 > Host: reqres.in\n1 > Connection: Keep-Alive\n1 > User-Agent: Apache-HttpClient\/4.5.13 (Java\/17.0.2)\n1 > Accept-Encoding: gzip,deflate\n\n\n18:33:45.003 response time in milliseconds: 295\n1 < 200\n1 < Date: Tue, 01 Mar 2022 17:33:45 GMT\n1 < Content-Type: application\/json; charset=utf-8\n1 < Transfer-Encoding: chunked\n1 < Connection: keep-alive\n1 < X-Powered-By: Express\n1 < Access-Control-Allow-Origin: *\n1 < Etag: W\/\"406-ut0vzoCuidvyMf8arZpMpJ6ZRDw\"\n1 < Via: 1.1 vegur\n1 < Cache-Control: max-age=14400\n1 < CF-Cache-Status: HIT\n1 < Age: 2500\n1 < Expect-CT: max-age=604800, report-uri=\"https:\/\/report-uri.cloudflare.com\/cdn-cgi\/beacon\/expect-ct\"\n1 < Report-To: {\"endpoints\":[{\"url\":\"https:\\\/\\\/a.nel.cloudflare.com\\\/report\\\/v3?s=KuNMydOsYegJLpy%2FWrRhHM3tgNg0E%2FPklNS67fLMd0PXwCpLXlkNof8GyZyFOO42N1y%2FXYG1bnrfpKpCEz%2FCdrd6z9EbYargr9P0Jixld9ye%2BJJyOeJufbqWXL8%3D\"}],\"group\":\"cf-nel\",\"max_age\":604800}\n1 < NEL: {\"success_fraction\":0,\"report_to\":\"cf-nel\",\"max_age\":604800}\n1 < Vary: Accept-Encoding\n1 < Server: cloudflare\n1 < CF-RAY: 6e53a3b4ac6806d5-LHR\n1 < alt-svc: h3=\":443\"; ma=86400, h3-29=\":443\"; ma=86400\n{\"page\":2,\"per_page\":6,\"total\":12,\"total_pages\":2,\"data\":[{\"id\":7,\"email\":\"michael.lawson@reqres.in\",\"first_name\":\"Michael\",\"last_name\":\"Lawson\",\"avatar\":\"https:\/\/reqres.in\/img\/faces\/7-image.jpg\"},{\"id\":8,\"email\":\"lindsay.ferguson@reqres.in\",\"first_name\":\"Lindsay\",\"last_name\":\"Ferguson\",\"avatar\":\"https:\/\/reqres.in\/img\/faces\/8-image.jpg\"},{\"id\":9,\"email\":\"tobias.funke@reqres.in\",\"first_name\":\"Tobias\",\"last_name\":\"Funke\",\"avatar\":\"https:\/\/reqres.in\/img\/faces\/9-image.jpg\"},{\"id\":10,\"email\":\"byron.fields@reqres.in\",\"first_name\":\"Byron\",\"last_name\":\"Fields\",\"avatar\":\"https:\/\/reqres.in\/img\/faces\/10-image.jpg\"},{\"id\":11,\"email\":\"george.edwards@reqres.in\",\"first_name\":\"George\",\"last_name\":\"Edwards\",\"avatar\":\"https:\/\/reqres.in\/img\/faces\/11-image.jpg\"},{\"id\":12,\"email\":\"rachel.howell@reqres.in\",\"first_name\":\"Rachel\",\"last_name\":\"Howell\",\"avatar\":\"https:\/\/reqres.in\/img\/faces\/12-image.jpg\"}],\"support\":{\"url\":\"https:\/\/reqres.in\/#support-heading\",\"text\":\"To keep ReqRes free, contributions towards server costs are appreciated!\"}}\n\n"},{"result":{"nanos":19432,"millis":0.019432,"status":"passed"},"step":{"line":10,"prefix":"Then","index":3,"text":"status 200"}},{"result":{"nanos":37329901,"millis":37.329901,"status":"passed"},"step":{"line":11,"prefix":"And","index":4,"text":"def user = get[0] response.data[?(@.id==11)]"}},{"result":{"nanos":6186485,"millis":6.186485,"status":"passed"},"step":{"line":12,"prefix":"And","index":5,"text":"match user.id == 11"}},{"result":{"nanos":928992,"millis":0.928992,"status":"passed"},"step":{"line":13,"prefix":"And","index":6,"text":"match user.email == 'george.edwards@reqres.in'"}},{"result":{"nanos":794095,"millis":0.794095,"status":"passed"},"step":{"line":14,"prefix":"And","index":7,"text":"match user.first_name == 'George'"}},{"result":{"nanos":605173,"millis":0.605173,"status":"passed"},"step":{"line":15,"prefix":"And","index":8,"text":"match user.last_name == 'Edwards'"}},{"result":{"nanos":624661,"millis":0.624661,"status":"passed"},"step":{"line":16,"prefix":"And","index":9,"text":"match user.avatar == 'https:\/\/reqres.in\/img\/faces\/11-image.jpg'"}}],"executorName":"main","line":6,"name":"GET, LIST USERS","description":"","durationMillis":590.41936,"startTime":1646156024462,"failed":false,"refId":"[1:6]","endTime":1646156025074,"exampleIndex":-1},{"sectionIndex":1,"stepResults":[{"result":{"nanos":471264,"millis":0.471264,"status":"passed"},"step":{"background":true,"line":4,"prefix":"*","index":0,"text":"url 'https:\/\/reqres.in\/api'"}},{"result":{"nanos":131552,"millis":0.131552,"status":"passed"},"step":{"line":20,"prefix":"Given","index":0,"text":"path '\/users'"}},{"result":{"nanos":289017,"millis":0.289017,"status":"passed"},"step":{"line":21,"prefix":"And","index":1,"text":"def userId = 11"}},{"result":{"nanos":12857912,"millis":12.857912,"status":"passed"},"step":{"line":22,"prefix":"And","index":2,"text":"path '\/' + userId"}},{"result":{"nanos":137448159,"millis":137.448159,"status":"passed"},"step":{"line":23,"prefix":"When","index":3,"text":"method GET"},"stepLog":"18:33:45.098 request:\n1 > GET https:\/\/reqres.in\/api\/users\/11\n1 > Host: reqres.in\n1 > Connection: Keep-Alive\n1 > User-Agent: Apache-HttpClient\/4.5.13 (Java\/17.0.2)\n1 > Accept-Encoding: gzip,deflate\n\n\n18:33:45.234 response time in milliseconds: 136\n1 < 200\n1 < Date: Tue, 01 Mar 2022 17:33:45 GMT\n1 < Content-Type: application\/json; charset=utf-8\n1 < Transfer-Encoding: chunked\n1 < Connection: keep-alive\n1 < X-Powered-By: Express\n1 < Access-Control-Allow-Origin: *\n1 < Etag: W\/\"11e-\/ce0hUxrHiq225jAM88pfKCXCL4\"\n1 < Via: 1.1 vegur\n1 < Cache-Control: max-age=14400\n1 < CF-Cache-Status: HIT\n1 < Age: 162\n1 < Expect-CT: max-age=604800, report-uri=\"https:\/\/report-uri.cloudflare.com\/cdn-cgi\/beacon\/expect-ct\"\n1 < Report-To: {\"endpoints\":[{\"url\":\"https:\\\/\\\/a.nel.cloudflare.com\\\/report\\\/v3?s=StwQiCA%2FozIuxPDT%2B814bvf0gxNxhPrHsfYtvOiC6cpUGHTrLIWr27YLXNLkybUu%2BylIxPSuBUOkCr6bdqQx4myI09lQei9FfR2pW0dIemnEHBmI0ieVznXbu%2B4%3D\"}],\"group\":\"cf-nel\",\"max_age\":604800}\n1 < NEL: {\"success_fraction\":0,\"report_to\":\"cf-nel\",\"max_age\":604800}\n1 < Vary: Accept-Encoding\n1 < Server: cloudflare\n1 < CF-RAY: 6e53a3b63e2f8e18-LHR\n1 < alt-svc: h3=\":443\"; ma=86400, h3-29=\":443\"; ma=86400\n{\"data\":{\"id\":11,\"email\":\"george.edwards@reqres.in\",\"first_name\":\"George\",\"last_name\":\"Edwards\",\"avatar\":\"https:\/\/reqres.in\/img\/faces\/11-image.jpg\"},\"support\":{\"url\":\"https:\/\/reqres.in\/#support-heading\",\"text\":\"To keep ReqRes free, contributions towards server costs are appreciated!\"}}\n\n"},{"result":{"nanos":8162,"millis":0.008162,"status":"passed"},"step":{"line":24,"prefix":"Then","index":4,"text":"status 200"}},{"result":{"nanos":10753234,"millis":10.753234,"status":"passed"},"step":{"line":25,"prefix":"And","index":5,"text":"def user = response.data"}},{"result":{"nanos":544836,"millis":0.544836,"status":"passed"},"step":{"line":26,"prefix":"And","index":6,"text":"match user.email == 'george.edwards@reqres.in'"}},{"result":{"nanos":331910,"millis":0.33191,"status":"passed"},"step":{"line":27,"prefix":"And","index":7,"text":"match user.first_name == 'George'"}},{"result":{"nanos":322901,"millis":0.322901,"status":"passed"},"step":{"line":28,"prefix":"And","index":8,"text":"match user.last_name == 'Edwards'"}},{"result":{"nanos":290027,"millis":0.290027,"status":"passed"},"step":{"line":29,"prefix":"And","index":9,"text":"match user.avatar == 'https:\/\/reqres.in\/img\/faces\/11-image.jpg'"}},{"result":{"nanos":2356608,"millis":2.356608,"status":"passed"},"step":{"line":30,"prefix":"And","index":10,"text":"match response.support != null"}}],"line":34,"description":"","durationMillis":165.805582,"failed":false,"executorName":"main","name":"GET, SINGLE USER","startTime":1646156025083,"refId":"[2.1:34]","endTime":1646156025250,"exampleData":{"userId":"11","email":"'george.edwards@reqres.in'","firstName":"'George'","last_name":"'Edwards'","avatar":"'https:\/\/reqres.in\/img\/faces\/11-image.jpg'"},"exampleIndex":0},{"sectionIndex":2,"stepResults":[{"result":{"nanos":154876,"millis":0.154876,"status":"passed"},"step":{"background":true,"line":4,"prefix":"*","index":0,"text":"url 'https:\/\/reqres.in\/api'"}},{"result":{"nanos":90640,"millis":0.09064,"status":"passed"},"step":{"line":37,"prefix":"Given","index":0,"text":"path '\/users'"}},{"result":{"nanos":33040541,"millis":33.040541,"status":"passed"},"step":{"line":38,"prefix":"And","index":1,"text":"def newRequest = read(\"..\/resources\/createRequest.json\")"}},{"result":{"nanos":482815,"millis":0.482815,"status":"passed"},"step":{"line":39,"prefix":"And","index":2,"text":"request newRequest"}},{"result":{"nanos":227072099,"millis":227.072099,"status":"passed"},"step":{"line":40,"prefix":"When","index":3,"text":"method POST"},"stepLog":"18:33:45.333 request:\n1 > POST https:\/\/reqres.in\/api\/users\n1 > Content-Type: application\/json; charset=UTF-8\n1 > Content-Length: 34\n1 > Host: reqres.in\n1 > Connection: Keep-Alive\n1 > User-Agent: Apache-HttpClient\/4.5.13 (Java\/17.0.2)\n1 > Accept-Encoding: gzip,deflate\n{\"name\":\"morpheus\",\"job\":\"leader\"}\n\n18:33:45.513 response time in milliseconds: 180\n1 < 201\n1 < Date: Tue, 01 Mar 2022 17:33:45 GMT\n1 < Content-Type: application\/json; charset=utf-8\n1 < Content-Length: 84\n1 < Connection: keep-alive\n1 < X-Powered-By: Express\n1 < Access-Control-Allow-Origin: *\n1 < Etag: W\/\"54-EwPzWYV1NR95bGM3R0b4jp\/bAV4\"\n1 < Via: 1.1 vegur\n1 < CF-Cache-Status: DYNAMIC\n1 < Expect-CT: max-age=604800, report-uri=\"https:\/\/report-uri.cloudflare.com\/cdn-cgi\/beacon\/expect-ct\"\n1 < Report-To: {\"endpoints\":[{\"url\":\"https:\\\/\\\/a.nel.cloudflare.com\\\/report\\\/v3?s=icCkt9yilkMdwakmrAt4v66BvsfTBXmENBJHonkCSmOXaNXeUJnVegGos9Gk7y9Tz8IrWcx3Ea3f5oVAVhfFWe3F6xB756B4PTeFpgm5TsC4Hw5Suw5OKtJ5eeo%3D\"}],\"group\":\"cf-nel\",\"max_age\":604800}\n1 < NEL: {\"success_fraction\":0,\"report_to\":\"cf-nel\",\"max_age\":604800}\n1 < Server: cloudflare\n1 < CF-RAY: 6e53a3b7abb573ff-LHR\n1 < alt-svc: h3=\":443\"; ma=86400, h3-29=\":443\"; ma=86400\n{\"name\":\"morpheus\",\"job\":\"leader\",\"id\":\"738\",\"createdAt\":\"2022-03-01T17:33:45.588Z\"}\n\n"},{"result":{"nanos":18148,"millis":0.018148,"status":"passed"},"step":{"line":41,"prefix":"Then","index":4,"text":"status 201"}},{"result":{"nanos":16771589,"millis":16.771589,"status":"passed"},"step":{"line":42,"prefix":"And","index":5,"text":"print response"},"stepLog":"18:33:45.532 [print] {\n  \"name\": \"morpheus\",\n  \"job\": \"leader\",\n  \"id\": \"738\",\n  \"createdAt\": \"2022-03-01T17:33:45.588Z\"\n}\n \n"},{"result":{"nanos":935177,"millis":0.935177,"status":"passed"},"step":{"line":43,"prefix":"And","index":6,"text":"match response.name == 'morpheus'"}},{"result":{"nanos":857543,"millis":0.857543,"status":"passed"},"step":{"line":44,"prefix":"And","index":7,"text":"match response.job == 'leader'"}},{"result":{"nanos":1322497,"errorMessage":"match failed: NOT_EQUALS\n  $ | actual path does not exist (STRING:NULL)\n  '#notpresent'\n  null\n\nsrc\/test\/java\/tests\/users.feature:45","millis":1.322497,"status":"failed"},"step":{"line":45,"prefix":"And","index":8,"text":"match response.if != null"},"stepLog":"18:33:45.536 src\/test\/java\/tests\/users.feature:45\nAnd match response.if != null\nmatch failed: NOT_EQUALS\n  $ | actual path does not exist (STRING:NULL)\n  '#notpresent'\n  null\n\nsrc\/test\/java\/tests\/users.feature:45\n"},{"result":{"nanos":0,"millis":0.0,"status":"skipped"},"step":{"line":46,"prefix":"And","index":9,"text":"match resposne.createdAt != null"}}],"line":36,"description":"","durationMillis":280.745925,"failed":true,"error":"match failed: NOT_EQUALS\n  $ | actual path does not exist (STRING:NULL)\n  '#notpresent'\n  null\n\nsrc\/test\/java\/tests\/users.feature:45","executorName":"main","name":"POST, CREATE","startTime":1646156025254,"refId":"[3:36]","endTime":1646156025536,"exampleIndex":-1}],"callDepth":0,"name":"'Karate demo tests'","description":"","resultDate":"2022-03-01 06:33:45 pm","durationMillis":1036.970867,"passedCount":2}