{"failedCount":1,"prefixedPath":"src\/test\/java\/tests\/users.feature","packageQualifiedName":"src.test.java.tests.users","loopIndex":-1,"relativePath":"src\/test\/java\/tests\/users.feature","scenarioResults":[{"sectionIndex":0,"stepResults":[{"result":{"nanos":80706596,"millis":80.706596,"status":"passed"},"step":{"background":true,"line":4,"prefix":"*","index":0,"text":"url 'https:\/\/reqres.in\/api'"}},{"result":{"nanos":566243,"millis":0.566243,"status":"passed"},"step":{"line":7,"prefix":"Given","index":0,"text":"path '\/users'"}},{"result":{"nanos":1449982,"millis":1.449982,"status":"passed"},"step":{"line":8,"prefix":"And","index":1,"text":"param page = 2"}},{"result":{"nanos":666933206,"millis":666.933206,"status":"passed"},"step":{"line":9,"prefix":"When","index":2,"text":"method GET"},"stepLog":"18:34:06.632 request:\n1 > GET https:\/\/reqres.in\/api\/users?page=2\n1 > Host: reqres.in\n1 > Connection: Keep-Alive\n1 > User-Agent: Apache-HttpClient\/4.5.13 (Java\/17.0.2)\n1 > Accept-Encoding: gzip,deflate\n\n\n18:34:06.953 response time in milliseconds: 318\n1 < 200\n1 < Date: Tue, 01 Mar 2022 17:34:07 GMT\n1 < Content-Type: application\/json; charset=utf-8\n1 < Transfer-Encoding: chunked\n1 < Connection: keep-alive\n1 < X-Powered-By: Express\n1 < Access-Control-Allow-Origin: *\n1 < Etag: W\/\"406-ut0vzoCuidvyMf8arZpMpJ6ZRDw\"\n1 < Via: 1.1 vegur\n1 < Cache-Control: max-age=14400\n1 < CF-Cache-Status: HIT\n1 < Age: 236\n1 < Expect-CT: max-age=604800, report-uri=\"https:\/\/report-uri.cloudflare.com\/cdn-cgi\/beacon\/expect-ct\"\n1 < Report-To: {\"endpoints\":[{\"url\":\"https:\\\/\\\/a.nel.cloudflare.com\\\/report\\\/v3?s=fGLZxv5GsQM48Sr%2FZInqFpLNcZL1ID4yvs7KbZbVkXy9Px5EzDSEJ1fhZnelJaKra%2BN%2ByhQ2bQS%2B0zPHQultC02Kmdsm5FFsL3b9tkinCoJsRF70uPcJ%2F0jVx2Q%3D\"}],\"group\":\"cf-nel\",\"max_age\":604800}\n1 < NEL: {\"success_fraction\":0,\"report_to\":\"cf-nel\",\"max_age\":604800}\n1 < Vary: Accept-Encoding\n1 < Server: cloudflare\n1 < CF-RAY: 6e53a43dcc67889d-LHR\n1 < alt-svc: h3=\":443\"; ma=86400, h3-29=\":443\"; ma=86400\n{\"page\":2,\"per_page\":6,\"total\":12,\"total_pages\":2,\"data\":[{\"id\":7,\"email\":\"michael.lawson@reqres.in\",\"first_name\":\"Michael\",\"last_name\":\"Lawson\",\"avatar\":\"https:\/\/reqres.in\/img\/faces\/7-image.jpg\"},{\"id\":8,\"email\":\"lindsay.ferguson@reqres.in\",\"first_name\":\"Lindsay\",\"last_name\":\"Ferguson\",\"avatar\":\"https:\/\/reqres.in\/img\/faces\/8-image.jpg\"},{\"id\":9,\"email\":\"tobias.funke@reqres.in\",\"first_name\":\"Tobias\",\"last_name\":\"Funke\",\"avatar\":\"https:\/\/reqres.in\/img\/faces\/9-image.jpg\"},{\"id\":10,\"email\":\"byron.fields@reqres.in\",\"first_name\":\"Byron\",\"last_name\":\"Fields\",\"avatar\":\"https:\/\/reqres.in\/img\/faces\/10-image.jpg\"},{\"id\":11,\"email\":\"george.edwards@reqres.in\",\"first_name\":\"George\",\"last_name\":\"Edwards\",\"avatar\":\"https:\/\/reqres.in\/img\/faces\/11-image.jpg\"},{\"id\":12,\"email\":\"rachel.howell@reqres.in\",\"first_name\":\"Rachel\",\"last_name\":\"Howell\",\"avatar\":\"https:\/\/reqres.in\/img\/faces\/12-image.jpg\"}],\"support\":{\"url\":\"https:\/\/reqres.in\/#support-heading\",\"text\":\"To keep ReqRes free, contributions towards server costs are appreciated!\"}}\n\n"},{"result":{"nanos":19749,"millis":0.019749,"status":"passed"},"step":{"line":10,"prefix":"Then","index":3,"text":"status 200"}},{"result":{"nanos":39821191,"millis":39.821191,"status":"passed"},"step":{"line":11,"prefix":"And","index":4,"text":"def user = get[0] response.data[?(@.id==11)]"}},{"result":{"nanos":6563224,"millis":6.563224,"status":"passed"},"step":{"line":12,"prefix":"And","index":5,"text":"match user.id == 11"}},{"result":{"nanos":876610,"millis":0.87661,"status":"passed"},"step":{"line":13,"prefix":"And","index":6,"text":"match user.email == 'george.edwards@reqres.in'"}},{"result":{"nanos":711948,"millis":0.711948,"status":"passed"},"step":{"line":14,"prefix":"And","index":7,"text":"match user.first_name == 'George'"}},{"result":{"nanos":558146,"millis":0.558146,"status":"passed"},"step":{"line":15,"prefix":"And","index":8,"text":"match user.last_name == 'Edwards'"}},{"result":{"nanos":628444,"millis":0.628444,"status":"passed"},"step":{"line":16,"prefix":"And","index":9,"text":"match user.avatar == 'https:\/\/reqres.in\/img\/faces\/11-image.jpg'"}}],"executorName":"main","line":6,"name":"GET, LIST USERS","description":"","durationMillis":798.835339,"startTime":1646156046214,"failed":false,"refId":"[1:6]","endTime":1646156047030,"exampleIndex":-1},{"sectionIndex":1,"stepResults":[{"result":{"nanos":438374,"millis":0.438374,"status":"passed"},"step":{"background":true,"line":4,"prefix":"*","index":0,"text":"url 'https:\/\/reqres.in\/api'"}},{"result":{"nanos":126921,"millis":0.126921,"status":"passed"},"step":{"line":20,"prefix":"Given","index":0,"text":"path '\/users'"}},{"result":{"nanos":226866,"millis":0.226866,"status":"passed"},"step":{"line":21,"prefix":"And","index":1,"text":"def userId = 11"}},{"result":{"nanos":12702131,"millis":12.702131,"status":"passed"},"step":{"line":22,"prefix":"And","index":2,"text":"path '\/' + userId"}},{"result":{"nanos":237025609,"millis":237.025609,"status":"passed"},"step":{"line":23,"prefix":"When","index":3,"text":"method GET"},"stepLog":"18:34:07.052 request:\n1 > GET https:\/\/reqres.in\/api\/users\/11\n1 > Host: reqres.in\n1 > Connection: Keep-Alive\n1 > User-Agent: Apache-HttpClient\/4.5.13 (Java\/17.0.2)\n1 > Accept-Encoding: gzip,deflate\n\n\n18:34:07.287 response time in milliseconds: 235\n1 < 200\n1 < Date: Tue, 01 Mar 2022 17:34:07 GMT\n1 < Content-Type: application\/json; charset=utf-8\n1 < Transfer-Encoding: chunked\n1 < Connection: keep-alive\n1 < X-Powered-By: Express\n1 < Access-Control-Allow-Origin: *\n1 < Etag: W\/\"11e-\/ce0hUxrHiq225jAM88pfKCXCL4\"\n1 < Via: 1.1 vegur\n1 < Cache-Control: max-age=14400\n1 < CF-Cache-Status: REVALIDATED\n1 < Expect-CT: max-age=604800, report-uri=\"https:\/\/report-uri.cloudflare.com\/cdn-cgi\/beacon\/expect-ct\"\n1 < Report-To: {\"endpoints\":[{\"url\":\"https:\\\/\\\/a.nel.cloudflare.com\\\/report\\\/v3?s=ZB2qv1dsMgSV0Mg5fUdrKonDzL50G5%2BK1koMJ3ws5GY6PrkmR1FMWr99o7NE%2Ba7SgoQrImhuszVBOQa3XHQ6JHsKOZmcUSCbGEyoyK%2F2RSNZd1azCqxix%2F3vOyY%3D\"}],\"group\":\"cf-nel\",\"max_age\":604800}\n1 < NEL: {\"success_fraction\":0,\"report_to\":\"cf-nel\",\"max_age\":604800}\n1 < Vary: Accept-Encoding\n1 < Server: cloudflare\n1 < CF-RAY: 6e53a43f7b0674f1-LHR\n1 < alt-svc: h3=\":443\"; ma=86400, h3-29=\":443\"; ma=86400\n{\"data\":{\"id\":11,\"email\":\"george.edwards@reqres.in\",\"first_name\":\"George\",\"last_name\":\"Edwards\",\"avatar\":\"https:\/\/reqres.in\/img\/faces\/11-image.jpg\"},\"support\":{\"url\":\"https:\/\/reqres.in\/#support-heading\",\"text\":\"To keep ReqRes free, contributions towards server costs are appreciated!\"}}\n\n"},{"result":{"nanos":14586,"millis":0.014586,"status":"passed"},"step":{"line":24,"prefix":"Then","index":4,"text":"status 200"}},{"result":{"nanos":18859304,"millis":18.859304,"status":"passed"},"step":{"line":25,"prefix":"And","index":5,"text":"def user = response.data"}},{"result":{"nanos":957064,"millis":0.957064,"status":"passed"},"step":{"line":26,"prefix":"And","index":6,"text":"match user.email == 'george.edwards@reqres.in'"}},{"result":{"nanos":575740,"millis":0.57574,"status":"passed"},"step":{"line":27,"prefix":"And","index":7,"text":"match user.first_name == 'George'"}},{"result":{"nanos":538322,"millis":0.538322,"status":"passed"},"step":{"line":28,"prefix":"And","index":8,"text":"match user.last_name == 'Edwards'"}},{"result":{"nanos":470596,"millis":0.470596,"status":"passed"},"step":{"line":29,"prefix":"And","index":9,"text":"match user.avatar == 'https:\/\/reqres.in\/img\/faces\/11-image.jpg'"}},{"result":{"nanos":3172415,"millis":3.172415,"status":"passed"},"step":{"line":30,"prefix":"And","index":10,"text":"match response.support != null"}}],"line":34,"description":"","durationMillis":275.107928,"failed":false,"executorName":"main","name":"GET, SINGLE USER","startTime":1646156047037,"refId":"[2.1:34]","endTime":1646156047314,"exampleData":{"userId":"11","email":"'george.edwards@reqres.in'","firstName":"'George'","last_name":"'Edwards'","avatar":"'https:\/\/reqres.in\/img\/faces\/11-image.jpg'"},"exampleIndex":0},{"sectionIndex":2,"stepResults":[{"result":{"nanos":204855,"millis":0.204855,"status":"passed"},"step":{"background":true,"line":4,"prefix":"*","index":0,"text":"url 'https:\/\/reqres.in\/api'"}},{"result":{"nanos":113543,"millis":0.113543,"status":"passed"},"step":{"line":37,"prefix":"Given","index":0,"text":"path '\/users'"}},{"result":{"nanos":36657435,"millis":36.657435,"status":"passed"},"step":{"line":38,"prefix":"And","index":1,"text":"def newRequest = read(\"..\/resources\/createRequest.json\")"}},{"result":{"nanos":466719,"millis":0.466719,"status":"passed"},"step":{"line":39,"prefix":"And","index":2,"text":"request newRequest"}},{"result":{"nanos":236079454,"millis":236.079454,"status":"passed"},"step":{"line":40,"prefix":"When","index":3,"text":"method POST"},"stepLog":"18:34:07.394 request:\n1 > POST https:\/\/reqres.in\/api\/users\n1 > Content-Type: application\/json; charset=UTF-8\n1 > Content-Length: 34\n1 > Host: reqres.in\n1 > Connection: Keep-Alive\n1 > User-Agent: Apache-HttpClient\/4.5.13 (Java\/17.0.2)\n1 > Accept-Encoding: gzip,deflate\n{\"name\":\"morpheus\",\"job\":\"leader\"}\n\n18:34:07.592 response time in milliseconds: 198\n1 < 201\n1 < Date: Tue, 01 Mar 2022 17:34:07 GMT\n1 < Content-Type: application\/json; charset=utf-8\n1 < Content-Length: 84\n1 < Connection: keep-alive\n1 < X-Powered-By: Express\n1 < Access-Control-Allow-Origin: *\n1 < Etag: W\/\"54-L8k8x3xR1EC805ppuCqxBFDZGa4\"\n1 < Via: 1.1 vegur\n1 < CF-Cache-Status: DYNAMIC\n1 < Expect-CT: max-age=604800, report-uri=\"https:\/\/report-uri.cloudflare.com\/cdn-cgi\/beacon\/expect-ct\"\n1 < Report-To: {\"endpoints\":[{\"url\":\"https:\\\/\\\/a.nel.cloudflare.com\\\/report\\\/v3?s=SgirUrxz6k7xLYlyfKMN%2FJ%2FAvcIPZBo8mi8uGIF9VhkqfUYb8eglYfZOSSWvkkuV%2FQdMMi4aReAia1pjaTLLbjt%2BKGD1Ee%2FN8DpD92Ga5D38TaSkxU3A93D85j0%3D\"}],\"group\":\"cf-nel\",\"max_age\":604800}\n1 < NEL: {\"success_fraction\":0,\"report_to\":\"cf-nel\",\"max_age\":604800}\n1 < Server: cloudflare\n1 < CF-RAY: 6e53a44198e48892-LHR\n1 < alt-svc: h3=\":443\"; ma=86400, h3-29=\":443\"; ma=86400\n{\"name\":\"morpheus\",\"job\":\"leader\",\"id\":\"692\",\"createdAt\":\"2022-03-01T17:34:07.669Z\"}\n\n"},{"result":{"nanos":12124,"millis":0.012124,"status":"passed"},"step":{"line":41,"prefix":"Then","index":4,"text":"status 201"}},{"result":{"nanos":13350376,"millis":13.350376,"status":"passed"},"step":{"line":42,"prefix":"And","index":5,"text":"print response"},"stepLog":"18:34:07.606 [print] {\n  \"name\": \"morpheus\",\n  \"job\": \"leader\",\n  \"id\": \"692\",\n  \"createdAt\": \"2022-03-01T17:34:07.669Z\"\n}\n \n"},{"result":{"nanos":918438,"millis":0.918438,"status":"passed"},"step":{"line":43,"prefix":"And","index":6,"text":"match response.name == 'morpheus'"}},{"result":{"nanos":800490,"millis":0.80049,"status":"passed"},"step":{"line":44,"prefix":"And","index":7,"text":"match response.job == 'leader'"}},{"result":{"nanos":443734,"millis":0.443734,"status":"passed"},"step":{"line":45,"prefix":"And","index":8,"text":"match response.id != null"}},{"result":{"nanos":12061219,"errorMessage":"js failed:\n>>>>\n01: resposne\n<<<<\norg.graalvm.polyglot.PolyglotException: ReferenceError: \"resposne\" is not defined\n- <js>.:program(Unnamed:1)\n\nsrc\/test\/java\/tests\/users.feature:46","millis":12.061219,"status":"failed"},"step":{"line":46,"prefix":"And","index":9,"text":"match resposne.createdAt != null"},"stepLog":"18:34:07.622 src\/test\/java\/tests\/users.feature:46\nAnd match resposne.createdAt != null\njs failed:\n>>>>\n01: resposne\n<<<<\norg.graalvm.polyglot.PolyglotException: ReferenceError: \"resposne\" is not defined\n- <js>.:program(Unnamed:1)\n\nsrc\/test\/java\/tests\/users.feature:46\n"}],"line":36,"description":"","durationMillis":301.108387,"failed":true,"error":"js failed:\n>>>>\n01: resposne\n<<<<\norg.graalvm.polyglot.PolyglotException: ReferenceError: \"resposne\" is not defined\n- <js>.:program(Unnamed:1)\n\nsrc\/test\/java\/tests\/users.feature:46","executorName":"main","name":"POST, CREATE","startTime":1646156047319,"refId":"[3:36]","endTime":1646156047622,"exampleIndex":-1}],"callDepth":0,"name":"'Karate demo tests'","description":"","resultDate":"2022-03-01 06:34:07 pm","durationMillis":1375.051654,"passedCount":2}