{"failedCount":0,"prefixedPath":"src\/test\/java\/tests\/users.feature","packageQualifiedName":"src.test.java.tests.users","loopIndex":-1,"relativePath":"src\/test\/java\/tests\/users.feature","scenarioResults":[{"sectionIndex":0,"stepResults":[{"result":{"nanos":50765629,"millis":50.765629,"status":"passed"},"step":{"background":true,"line":3,"prefix":"*","index":0,"text":"url 'https:\/\/reqres.in\/api'"}},{"result":{"nanos":482777,"millis":0.482777,"status":"passed"},"step":{"line":6,"prefix":"Given","index":0,"text":"path '\/users'"}},{"result":{"nanos":1064435,"millis":1.064435,"status":"passed"},"step":{"line":7,"prefix":"And","index":1,"text":"param page = 2"}},{"result":{"nanos":547899775,"millis":547.899775,"status":"passed"},"step":{"line":8,"prefix":"When","index":2,"text":"method GET"},"stepLog":"15:47:27.402 request:\n1 > GET https:\/\/reqres.in\/api\/users?page=2\n1 > Host: reqres.in\n1 > Connection: Keep-Alive\n1 > User-Agent: Apache-HttpClient\/4.5.13 (Java\/17.0.2)\n1 > Accept-Encoding: gzip,deflate\n\n\n15:47:27.710 response time in milliseconds: 305\n1 < 200\n1 < Date: Tue, 01 Mar 2022 14:47:27 GMT\n1 < Content-Type: application\/json; charset=utf-8\n1 < Transfer-Encoding: chunked\n1 < Connection: keep-alive\n1 < X-Powered-By: Express\n1 < Access-Control-Allow-Origin: *\n1 < Etag: W\/\"406-ut0vzoCuidvyMf8arZpMpJ6ZRDw\"\n1 < Via: 1.1 vegur\n1 < Cache-Control: max-age=14400\n1 < CF-Cache-Status: HIT\n1 < Age: 4075\n1 < Expect-CT: max-age=604800, report-uri=\"https:\/\/report-uri.cloudflare.com\/cdn-cgi\/beacon\/expect-ct\"\n1 < Report-To: {\"endpoints\":[{\"url\":\"https:\\\/\\\/a.nel.cloudflare.com\\\/report\\\/v3?s=uHmlhSk6vEWRw1y2w95LZVTd2XSy9YYjDepPD8fJS%2BJJd8cZmBpG2k87l4X%2FUhUl%2FiVx4wVntT4luLBjiAgVXMauA0bVicnzSoPRnRsvfAZzchbiOa5%2Bbe2amEs%3D\"}],\"group\":\"cf-nel\",\"max_age\":604800}\n1 < NEL: {\"success_fraction\":0,\"report_to\":\"cf-nel\",\"max_age\":604800}\n1 < Vary: Accept-Encoding\n1 < Server: cloudflare\n1 < CF-RAY: 6e52b01e4feb734b-MRS\n1 < alt-svc: h3=\":443\"; ma=86400, h3-29=\":443\"; ma=86400\n{\"page\":2,\"per_page\":6,\"total\":12,\"total_pages\":2,\"data\":[{\"id\":7,\"email\":\"michael.lawson@reqres.in\",\"first_name\":\"Michael\",\"last_name\":\"Lawson\",\"avatar\":\"https:\/\/reqres.in\/img\/faces\/7-image.jpg\"},{\"id\":8,\"email\":\"lindsay.ferguson@reqres.in\",\"first_name\":\"Lindsay\",\"last_name\":\"Ferguson\",\"avatar\":\"https:\/\/reqres.in\/img\/faces\/8-image.jpg\"},{\"id\":9,\"email\":\"tobias.funke@reqres.in\",\"first_name\":\"Tobias\",\"last_name\":\"Funke\",\"avatar\":\"https:\/\/reqres.in\/img\/faces\/9-image.jpg\"},{\"id\":10,\"email\":\"byron.fields@reqres.in\",\"first_name\":\"Byron\",\"last_name\":\"Fields\",\"avatar\":\"https:\/\/reqres.in\/img\/faces\/10-image.jpg\"},{\"id\":11,\"email\":\"george.edwards@reqres.in\",\"first_name\":\"George\",\"last_name\":\"Edwards\",\"avatar\":\"https:\/\/reqres.in\/img\/faces\/11-image.jpg\"},{\"id\":12,\"email\":\"rachel.howell@reqres.in\",\"first_name\":\"Rachel\",\"last_name\":\"Howell\",\"avatar\":\"https:\/\/reqres.in\/img\/faces\/12-image.jpg\"}],\"support\":{\"url\":\"https:\/\/reqres.in\/#support-heading\",\"text\":\"To keep ReqRes free, contributions towards server costs are appreciated!\"}}\n\n"},{"result":{"nanos":18717,"millis":0.018717,"status":"passed"},"step":{"line":9,"prefix":"Then","index":3,"text":"status 200"}}],"executorName":"main","line":5,"name":"'Users List'","description":"","durationMillis":600.231333,"startTime":1646146047121,"failed":false,"refId":"[1:5]","endTime":1646146047732,"exampleIndex":-1}],"callDepth":0,"name":"'Karate demo tests'","description":"","resultDate":"2022-03-01 03:47:27 pm","durationMillis":600.231333,"passedCount":1}