{"failedCount":0,"prefixedPath":"src\/test\/java\/tests\/users.feature","packageQualifiedName":"src.test.java.tests.users","loopIndex":-1,"relativePath":"src\/test\/java\/tests\/users.feature","scenarioResults":[{"sectionIndex":0,"stepResults":[{"result":{"nanos":57857897,"millis":57.857897,"status":"passed"},"step":{"background":true,"line":4,"prefix":"*","index":0,"text":"url 'https:\/\/reqres.in\/api'"}},{"result":{"nanos":717009,"millis":0.717009,"status":"passed"},"step":{"line":7,"prefix":"Given","index":0,"text":"path '\/users'"}},{"result":{"nanos":1438177,"millis":1.438177,"status":"passed"},"step":{"line":8,"prefix":"And","index":1,"text":"param page = 2"}},{"result":{"nanos":495057536,"millis":495.057536,"status":"passed"},"step":{"line":9,"prefix":"When","index":2,"text":"method GET"},"stepLog":"18:52:38.608 request:\n1 > GET https:\/\/reqres.in\/api\/users?page=2\n1 > Host: reqres.in\n1 > Connection: Keep-Alive\n1 > User-Agent: Apache-HttpClient\/4.5.13 (Java\/17.0.2)\n1 > Accept-Encoding: gzip,deflate\n\n\n18:52:38.879 response time in milliseconds: 267\n1 < 200\n1 < Date: Tue, 01 Mar 2022 17:52:38 GMT\n1 < Content-Type: application\/json; charset=utf-8\n1 < Transfer-Encoding: chunked\n1 < Connection: keep-alive\n1 < X-Powered-By: Express\n1 < Access-Control-Allow-Origin: *\n1 < Etag: W\/\"406-ut0vzoCuidvyMf8arZpMpJ6ZRDw\"\n1 < Via: 1.1 vegur\n1 < Cache-Control: max-age=14400\n1 < CF-Cache-Status: HIT\n1 < Age: 404\n1 < Expect-CT: max-age=604800, report-uri=\"https:\/\/report-uri.cloudflare.com\/cdn-cgi\/beacon\/expect-ct\"\n1 < Report-To: {\"endpoints\":[{\"url\":\"https:\\\/\\\/a.nel.cloudflare.com\\\/report\\\/v3?s=ngYQzlmQT6GVqyIvNRyWMpLU04ofKFtf44uO3UneWXOjDnPv2hPTVvHA47DuwI1HeRB9DsbaINZ0KKfx8FUZLz2twG1gKkBLzm0O1W0kCs1r9TZzh7pn5XQ9cKE%3D\"}],\"group\":\"cf-nel\",\"max_age\":604800}\n1 < NEL: {\"success_fraction\":0,\"report_to\":\"cf-nel\",\"max_age\":604800}\n1 < Vary: Accept-Encoding\n1 < Server: cloudflare\n1 < CF-RAY: 6e53bf633cc573b7-MRS\n1 < alt-svc: h3=\":443\"; ma=86400, h3-29=\":443\"; ma=86400\n{\"page\":2,\"per_page\":6,\"total\":12,\"total_pages\":2,\"data\":[{\"id\":7,\"email\":\"michael.lawson@reqres.in\",\"first_name\":\"Michael\",\"last_name\":\"Lawson\",\"avatar\":\"https:\/\/reqres.in\/img\/faces\/7-image.jpg\"},{\"id\":8,\"email\":\"lindsay.ferguson@reqres.in\",\"first_name\":\"Lindsay\",\"last_name\":\"Ferguson\",\"avatar\":\"https:\/\/reqres.in\/img\/faces\/8-image.jpg\"},{\"id\":9,\"email\":\"tobias.funke@reqres.in\",\"first_name\":\"Tobias\",\"last_name\":\"Funke\",\"avatar\":\"https:\/\/reqres.in\/img\/faces\/9-image.jpg\"},{\"id\":10,\"email\":\"byron.fields@reqres.in\",\"first_name\":\"Byron\",\"last_name\":\"Fields\",\"avatar\":\"https:\/\/reqres.in\/img\/faces\/10-image.jpg\"},{\"id\":11,\"email\":\"george.edwards@reqres.in\",\"first_name\":\"George\",\"last_name\":\"Edwards\",\"avatar\":\"https:\/\/reqres.in\/img\/faces\/11-image.jpg\"},{\"id\":12,\"email\":\"rachel.howell@reqres.in\",\"first_name\":\"Rachel\",\"last_name\":\"Howell\",\"avatar\":\"https:\/\/reqres.in\/img\/faces\/12-image.jpg\"}],\"support\":{\"url\":\"https:\/\/reqres.in\/#support-heading\",\"text\":\"To keep ReqRes free, contributions towards server costs are appreciated!\"}}\n\n"},{"result":{"nanos":17894,"millis":0.017894,"status":"passed"},"step":{"line":10,"prefix":"Then","index":3,"text":"status 200"}},{"result":{"nanos":39328708,"millis":39.328708,"status":"passed"},"step":{"line":11,"prefix":"And","index":4,"text":"def user = get[0] response.data[?(@.id==11)]"}},{"result":{"nanos":6510013,"millis":6.510013,"status":"passed"},"step":{"line":12,"prefix":"And","index":5,"text":"match user.id == 11"}},{"result":{"nanos":914146,"millis":0.914146,"status":"passed"},"step":{"line":13,"prefix":"And","index":6,"text":"match user.email == 'george.edwards@reqres.in'"}},{"result":{"nanos":736107,"millis":0.736107,"status":"passed"},"step":{"line":14,"prefix":"And","index":7,"text":"match user.first_name == 'George'"}},{"result":{"nanos":634048,"millis":0.634048,"status":"passed"},"step":{"line":15,"prefix":"And","index":8,"text":"match user.last_name == 'Edwards'"}},{"result":{"nanos":643302,"millis":0.643302,"status":"passed"},"step":{"line":16,"prefix":"And","index":9,"text":"match user.avatar == 'https:\/\/reqres.in\/img\/faces\/11-image.jpg'"}}],"executorName":"main","line":6,"name":"GET, LIST USERS","description":"","durationMillis":603.854837,"startTime":1646157158325,"failed":false,"refId":"[1:6]","endTime":1646157158949,"exampleIndex":-1},{"sectionIndex":4,"stepResults":[{"result":{"nanos":547852,"millis":0.547852,"status":"passed"},"step":{"background":true,"line":4,"prefix":"*","index":0,"text":"url 'https:\/\/reqres.in\/api'"}},{"result":{"nanos":144556,"millis":0.144556,"status":"passed"},"step":{"line":61,"prefix":"Given","index":0,"text":"path '\/users'"}},{"result":{"nanos":240071,"millis":0.240071,"status":"passed"},"step":{"line":62,"prefix":"And","index":1,"text":"param page = 2"}},{"result":{"nanos":140253760,"millis":140.25376,"status":"passed"},"step":{"line":63,"prefix":"When","index":2,"text":"method GET"},"stepLog":"18:52:38.960 request:\n1 > GET https:\/\/reqres.in\/api\/users?page=2\n1 > Host: reqres.in\n1 > Connection: Keep-Alive\n1 > User-Agent: Apache-HttpClient\/4.5.13 (Java\/17.0.2)\n1 > Accept-Encoding: gzip,deflate\n\n\n18:52:39.099 response time in milliseconds: 139\n1 < 200\n1 < Date: Tue, 01 Mar 2022 17:52:39 GMT\n1 < Content-Type: application\/json; charset=utf-8\n1 < Transfer-Encoding: chunked\n1 < Connection: keep-alive\n1 < X-Powered-By: Express\n1 < Access-Control-Allow-Origin: *\n1 < Etag: W\/\"406-ut0vzoCuidvyMf8arZpMpJ6ZRDw\"\n1 < Via: 1.1 vegur\n1 < Cache-Control: max-age=14400\n1 < CF-Cache-Status: HIT\n1 < Age: 405\n1 < Expect-CT: max-age=604800, report-uri=\"https:\/\/report-uri.cloudflare.com\/cdn-cgi\/beacon\/expect-ct\"\n1 < Report-To: {\"endpoints\":[{\"url\":\"https:\\\/\\\/a.nel.cloudflare.com\\\/report\\\/v3?s=Z%2BSr5Lf3yHqCqMKBIjCfxZ6V5FvTY1z8d7gydwpJntnbwysYTlRxugaVBbf3QMjgq6%2FSer4ck5ZGOn%2FIzWe8DmjjHlsXFnfIth5MlRtAjIG%2BSDc%2FPZ%2FsnrZWHlo%3D\"}],\"group\":\"cf-nel\",\"max_age\":604800}\n1 < NEL: {\"success_fraction\":0,\"report_to\":\"cf-nel\",\"max_age\":604800}\n1 < Vary: Accept-Encoding\n1 < Server: cloudflare\n1 < CF-RAY: 6e53bf64bcf873a3-MRS\n1 < alt-svc: h3=\":443\"; ma=86400, h3-29=\":443\"; ma=86400\n{\"page\":2,\"per_page\":6,\"total\":12,\"total_pages\":2,\"data\":[{\"id\":7,\"email\":\"michael.lawson@reqres.in\",\"first_name\":\"Michael\",\"last_name\":\"Lawson\",\"avatar\":\"https:\/\/reqres.in\/img\/faces\/7-image.jpg\"},{\"id\":8,\"email\":\"lindsay.ferguson@reqres.in\",\"first_name\":\"Lindsay\",\"last_name\":\"Ferguson\",\"avatar\":\"https:\/\/reqres.in\/img\/faces\/8-image.jpg\"},{\"id\":9,\"email\":\"tobias.funke@reqres.in\",\"first_name\":\"Tobias\",\"last_name\":\"Funke\",\"avatar\":\"https:\/\/reqres.in\/img\/faces\/9-image.jpg\"},{\"id\":10,\"email\":\"byron.fields@reqres.in\",\"first_name\":\"Byron\",\"last_name\":\"Fields\",\"avatar\":\"https:\/\/reqres.in\/img\/faces\/10-image.jpg\"},{\"id\":11,\"email\":\"george.edwards@reqres.in\",\"first_name\":\"George\",\"last_name\":\"Edwards\",\"avatar\":\"https:\/\/reqres.in\/img\/faces\/11-image.jpg\"},{\"id\":12,\"email\":\"rachel.howell@reqres.in\",\"first_name\":\"Rachel\",\"last_name\":\"Howell\",\"avatar\":\"https:\/\/reqres.in\/img\/faces\/12-image.jpg\"}],\"support\":{\"url\":\"https:\/\/reqres.in\/#support-heading\",\"text\":\"To keep ReqRes free, contributions towards server costs are appreciated!\"}}\n\n"},{"result":{"nanos":9095,"millis":0.009095,"status":"passed"},"step":{"line":64,"prefix":"Then","index":3,"text":"status 200"}},{"result":{"nanos":907871,"millis":0.907871,"status":"passed"},"step":{"line":65,"prefix":"And","index":4,"text":"def userOnList = get[0] response.data[?(@.id==11)]"}},{"result":{"nanos":146446,"millis":0.146446,"status":"passed"},"step":{"line":66,"prefix":"Given","index":5,"text":"path '\/users'"}},{"result":{"nanos":9211075,"millis":9.211075,"status":"passed"},"step":{"line":67,"prefix":"And","index":6,"text":"path '\/' + 11"}},{"result":{"nanos":117054970,"millis":117.05497,"status":"passed"},"step":{"line":68,"prefix":"When","index":7,"text":"method GET"},"stepLog":"18:52:39.111 request:\n2 > GET https:\/\/reqres.in\/api\/users\/11\n2 > Host: reqres.in\n2 > Connection: Keep-Alive\n2 > User-Agent: Apache-HttpClient\/4.5.13 (Java\/17.0.2)\n2 > Accept-Encoding: gzip,deflate\n\n\n18:52:39.226 response time in milliseconds: 115\n2 < 200\n2 < Date: Tue, 01 Mar 2022 17:52:39 GMT\n2 < Content-Type: application\/json; charset=utf-8\n2 < Transfer-Encoding: chunked\n2 < Connection: keep-alive\n2 < X-Powered-By: Express\n2 < Access-Control-Allow-Origin: *\n2 < Etag: W\/\"11e-\/ce0hUxrHiq225jAM88pfKCXCL4\"\n2 < Via: 1.1 vegur\n2 < Cache-Control: max-age=14400\n2 < CF-Cache-Status: HIT\n2 < Age: 1352\n2 < Expect-CT: max-age=604800, report-uri=\"https:\/\/report-uri.cloudflare.com\/cdn-cgi\/beacon\/expect-ct\"\n2 < Report-To: {\"endpoints\":[{\"url\":\"https:\\\/\\\/a.nel.cloudflare.com\\\/report\\\/v3?s=TaCzE6KuOK7I5T1QPFMfbnNLbJL2%2Bh%2F7vz6of%2BxzL6m8fUE%2FTqAybOZKEWv8nLGatBMfNqSoTxgypyfX9Sr9FMowJvagZ65cGRPRkzbJO1auKun7hyY53dsMGro%3D\"}],\"group\":\"cf-nel\",\"max_age\":604800}\n2 < NEL: {\"success_fraction\":0,\"report_to\":\"cf-nel\",\"max_age\":604800}\n2 < Vary: Accept-Encoding\n2 < Server: cloudflare\n2 < CF-RAY: 6e53bf657add7381-MRS\n2 < alt-svc: h3=\":443\"; ma=86400, h3-29=\":443\"; ma=86400\n{\"data\":{\"id\":11,\"email\":\"george.edwards@reqres.in\",\"first_name\":\"George\",\"last_name\":\"Edwards\",\"avatar\":\"https:\/\/reqres.in\/img\/faces\/11-image.jpg\"},\"support\":{\"url\":\"https:\/\/reqres.in\/#support-heading\",\"text\":\"To keep ReqRes free, contributions towards server costs are appreciated!\"}}\n\n"},{"result":{"nanos":11737,"millis":0.011737,"status":"passed"},"step":{"line":69,"prefix":"Then","index":8,"text":"status 200"}},{"result":{"nanos":22973225,"millis":22.973225,"status":"passed"},"step":{"line":70,"prefix":"And","index":9,"text":"def singleUser = response.data"}},{"result":{"nanos":39929057,"millis":39.929057,"status":"passed"},"step":{"line":71,"prefix":"And","index":10,"text":"print userOnList"},"stepLog":"18:52:39.290 [print] {\n  \"id\": 11,\n  \"email\": \"george.edwards@reqres.in\",\n  \"first_name\": \"George\",\n  \"last_name\": \"Edwards\",\n  \"avatar\": \"https:\/\/reqres.in\/img\/faces\/11-image.jpg\"\n}\n \n"},{"result":{"nanos":1284563,"millis":1.284563,"status":"passed"},"step":{"line":72,"prefix":"And","index":11,"text":"print singleUser"},"stepLog":"18:52:39.292 [print] {\n  \"id\": 11,\n  \"email\": \"george.edwards@reqres.in\",\n  \"first_name\": \"George\",\n  \"last_name\": \"Edwards\",\n  \"avatar\": \"https:\/\/reqres.in\/img\/faces\/11-image.jpg\"\n}\n \n"}],"line":76,"description":"","durationMillis":332.714278,"failed":false,"executorName":"main","name":"GET, LIST USERS","startTime":1646157158958,"refId":"[5.1:76]","endTime":1646157159292,"exampleData":{"userId":"11"},"exampleIndex":0}],"callDepth":0,"name":"'Karate demo tests'","description":"","resultDate":"2022-03-01 06:52:39 pm","durationMillis":936.569115,"passedCount":2}