{"failedCount":0,"prefixedPath":"src\/test\/java\/tests\/users.feature","packageQualifiedName":"src.test.java.tests.users","loopIndex":-1,"relativePath":"src\/test\/java\/tests\/users.feature","scenarioResults":[{"sectionIndex":0,"stepResults":[{"result":{"nanos":74900174,"millis":74.900174,"status":"passed"},"step":{"background":true,"line":4,"prefix":"*","index":0,"text":"url 'https:\/\/reqres.in\/api'"}},{"result":{"nanos":436700,"millis":0.4367,"status":"passed"},"step":{"line":7,"prefix":"Given","index":0,"text":"path '\/users'"}},{"result":{"nanos":1053522,"millis":1.053522,"status":"passed"},"step":{"line":8,"prefix":"And","index":1,"text":"param page = 2"}},{"result":{"nanos":646348816,"millis":646.348816,"status":"passed"},"step":{"line":9,"prefix":"When","index":2,"text":"method GET"},"stepLog":"19:29:37.934 request:\n1 > GET https:\/\/reqres.in\/api\/users?page=2\n1 > Host: reqres.in\n1 > Connection: Keep-Alive\n1 > User-Agent: Apache-HttpClient\/4.5.13 (Java\/17.0.2)\n1 > Accept-Encoding: gzip,deflate\n\n\n19:29:38.311 response time in milliseconds: 373\n1 < 200\n1 < Date: Tue, 01 Mar 2022 18:29:38 GMT\n1 < Content-Type: application\/json; charset=utf-8\n1 < Transfer-Encoding: chunked\n1 < Connection: keep-alive\n1 < X-Powered-By: Express\n1 < Access-Control-Allow-Origin: *\n1 < Etag: W\/\"406-ut0vzoCuidvyMf8arZpMpJ6ZRDw\"\n1 < Via: 1.1 vegur\n1 < Cache-Control: max-age=14400\n1 < CF-Cache-Status: HIT\n1 < Age: 5724\n1 < Expect-CT: max-age=604800, report-uri=\"https:\/\/report-uri.cloudflare.com\/cdn-cgi\/beacon\/expect-ct\"\n1 < Report-To: {\"endpoints\":[{\"url\":\"https:\\\/\\\/a.nel.cloudflare.com\\\/report\\\/v3?s=9lNWrFO9r8xEYxZ2xCHJFsMz4yQA2mZBKPRa9rK6EK4TsgEEY29ZiH9nN%2B0GmZRHvWkUjNSw8uspu5dOhlSEdmJwLdp1Ak%2BnQR0qOhmVke4W8bOGH%2FrUsCESNr0%3D\"}],\"group\":\"cf-nel\",\"max_age\":604800}\n1 < NEL: {\"success_fraction\":0,\"report_to\":\"cf-nel\",\"max_age\":604800}\n1 < Vary: Accept-Encoding\n1 < Server: cloudflare\n1 < CF-RAY: 6e53f5926fc172c7-LHR\n1 < alt-svc: h3=\":443\"; ma=86400, h3-29=\":443\"; ma=86400\n{\"page\":2,\"per_page\":6,\"total\":12,\"total_pages\":2,\"data\":[{\"id\":7,\"email\":\"michael.lawson@reqres.in\",\"first_name\":\"Michael\",\"last_name\":\"Lawson\",\"avatar\":\"https:\/\/reqres.in\/img\/faces\/7-image.jpg\"},{\"id\":8,\"email\":\"lindsay.ferguson@reqres.in\",\"first_name\":\"Lindsay\",\"last_name\":\"Ferguson\",\"avatar\":\"https:\/\/reqres.in\/img\/faces\/8-image.jpg\"},{\"id\":9,\"email\":\"tobias.funke@reqres.in\",\"first_name\":\"Tobias\",\"last_name\":\"Funke\",\"avatar\":\"https:\/\/reqres.in\/img\/faces\/9-image.jpg\"},{\"id\":10,\"email\":\"byron.fields@reqres.in\",\"first_name\":\"Byron\",\"last_name\":\"Fields\",\"avatar\":\"https:\/\/reqres.in\/img\/faces\/10-image.jpg\"},{\"id\":11,\"email\":\"george.edwards@reqres.in\",\"first_name\":\"George\",\"last_name\":\"Edwards\",\"avatar\":\"https:\/\/reqres.in\/img\/faces\/11-image.jpg\"},{\"id\":12,\"email\":\"rachel.howell@reqres.in\",\"first_name\":\"Rachel\",\"last_name\":\"Howell\",\"avatar\":\"https:\/\/reqres.in\/img\/faces\/12-image.jpg\"}],\"support\":{\"url\":\"https:\/\/reqres.in\/#support-heading\",\"text\":\"To keep ReqRes free, contributions towards server costs are appreciated!\"}}\n\n"},{"result":{"nanos":21739,"millis":0.021739,"status":"passed"},"step":{"line":10,"prefix":"Then","index":3,"text":"status 200"}},{"result":{"nanos":51276433,"millis":51.276433,"status":"passed"},"step":{"line":11,"prefix":"And","index":4,"text":"def user = get[0] response.data[?(@.id==11)]"}},{"result":{"nanos":7620422,"millis":7.620422,"status":"passed"},"step":{"line":12,"prefix":"And","index":5,"text":"match user.id == 11"}},{"result":{"nanos":911800,"millis":0.9118,"status":"passed"},"step":{"line":13,"prefix":"And","index":6,"text":"match user.email == 'george.edwards@reqres.in'"}},{"result":{"nanos":923552,"millis":0.923552,"status":"passed"},"step":{"line":14,"prefix":"And","index":7,"text":"match user.first_name == 'George'"}},{"result":{"nanos":1071485,"millis":1.071485,"status":"passed"},"step":{"line":15,"prefix":"And","index":8,"text":"match user.last_name == 'Edwards'"}},{"result":{"nanos":805698,"millis":0.805698,"status":"passed"},"step":{"line":16,"prefix":"And","index":9,"text":"match user.avatar == 'https:\/\/reqres.in\/img\/faces\/11-image.jpg'"}}],"executorName":"main","line":6,"name":"GET, LIST USERS","description":"","durationMillis":785.370341,"startTime":1646159377605,"failed":false,"refId":"[1:6]","endTime":1646159378403,"exampleIndex":-1},{"sectionIndex":1,"stepResults":[{"result":{"nanos":637567,"millis":0.637567,"status":"passed"},"step":{"background":true,"line":4,"prefix":"*","index":0,"text":"url 'https:\/\/reqres.in\/api'"}},{"result":{"nanos":396789,"millis":0.396789,"status":"passed"},"step":{"line":20,"prefix":"Given","index":0,"text":"path '\/users'"}},{"result":{"nanos":341181,"millis":0.341181,"status":"passed"},"step":{"line":21,"prefix":"And","index":1,"text":"def userId = 11"}},{"result":{"nanos":15846839,"millis":15.846839,"status":"passed"},"step":{"line":22,"prefix":"And","index":2,"text":"path '\/' + userId"}},{"result":{"nanos":181878275,"millis":181.878275,"status":"passed"},"step":{"line":23,"prefix":"When","index":3,"text":"method GET"},"stepLog":"19:29:38.429 request:\n1 > GET https:\/\/reqres.in\/api\/users\/11\n1 > Host: reqres.in\n1 > Connection: Keep-Alive\n1 > User-Agent: Apache-HttpClient\/4.5.13 (Java\/17.0.2)\n1 > Accept-Encoding: gzip,deflate\n\n\n19:29:38.609 response time in milliseconds: 180\n1 < 200\n1 < Date: Tue, 01 Mar 2022 18:29:38 GMT\n1 < Content-Type: application\/json; charset=utf-8\n1 < Transfer-Encoding: chunked\n1 < Connection: keep-alive\n1 < X-Powered-By: Express\n1 < Access-Control-Allow-Origin: *\n1 < Etag: W\/\"11e-\/ce0hUxrHiq225jAM88pfKCXCL4\"\n1 < Via: 1.1 vegur\n1 < Cache-Control: max-age=14400\n1 < CF-Cache-Status: REVALIDATED\n1 < Expect-CT: max-age=604800, report-uri=\"https:\/\/report-uri.cloudflare.com\/cdn-cgi\/beacon\/expect-ct\"\n1 < Report-To: {\"endpoints\":[{\"url\":\"https:\\\/\\\/a.nel.cloudflare.com\\\/report\\\/v3?s=0BOvlkXaL%2Fmli6%2F5TZLG2aZicUirIEAJlaMyXRlcN1vIUSoErUrvVLbh8SPIK3UzlzUwaAjNlXzJTKrcG0S2KnbD03qY66xVbuJXDAp%2FMbgFEKkck0zYlQi94DA%3D\"}],\"group\":\"cf-nel\",\"max_age\":604800}\n1 < NEL: {\"success_fraction\":0,\"report_to\":\"cf-nel\",\"max_age\":604800}\n1 < Vary: Accept-Encoding\n1 < Server: cloudflare\n1 < CF-RAY: 6e53f5942eb876bd-LHR\n1 < alt-svc: h3=\":443\"; ma=86400, h3-29=\":443\"; ma=86400\n{\"data\":{\"id\":11,\"email\":\"george.edwards@reqres.in\",\"first_name\":\"George\",\"last_name\":\"Edwards\",\"avatar\":\"https:\/\/reqres.in\/img\/faces\/11-image.jpg\"},\"support\":{\"url\":\"https:\/\/reqres.in\/#support-heading\",\"text\":\"To keep ReqRes free, contributions towards server costs are appreciated!\"}}\n\n"},{"result":{"nanos":15280,"millis":0.01528,"status":"passed"},"step":{"line":24,"prefix":"Then","index":4,"text":"status 200"}},{"result":{"nanos":16655965,"millis":16.655965,"status":"passed"},"step":{"line":25,"prefix":"And","index":5,"text":"def user = response.data"}},{"result":{"nanos":1121398,"millis":1.121398,"status":"passed"},"step":{"line":26,"prefix":"And","index":6,"text":"match user.email == 'george.edwards@reqres.in'"}},{"result":{"nanos":548151,"millis":0.548151,"status":"passed"},"step":{"line":27,"prefix":"And","index":7,"text":"match user.first_name == 'George'"}},{"result":{"nanos":524905,"millis":0.524905,"status":"passed"},"step":{"line":28,"prefix":"And","index":8,"text":"match user.last_name == 'Edwards'"}},{"result":{"nanos":597686,"millis":0.597686,"status":"passed"},"step":{"line":29,"prefix":"And","index":9,"text":"match user.avatar == 'https:\/\/reqres.in\/img\/faces\/11-image.jpg'"}},{"result":{"nanos":3089232,"millis":3.089232,"status":"passed"},"step":{"line":30,"prefix":"And","index":10,"text":"match response.support != null"}}],"line":34,"description":"","durationMillis":221.653268,"failed":false,"executorName":"main","name":"GET, SINGLE USER","startTime":1646159378411,"refId":"[2.1:34]","endTime":1646159378634,"exampleData":{"userId":"11","email":"'george.edwards@reqres.in'","firstName":"'George'","last_name":"'Edwards'","avatar":"'https:\/\/reqres.in\/img\/faces\/11-image.jpg'"},"exampleIndex":0},{"sectionIndex":2,"stepResults":[{"result":{"nanos":227010,"millis":0.22701,"status":"passed"},"step":{"background":true,"line":4,"prefix":"*","index":0,"text":"url 'https:\/\/reqres.in\/api'"}},{"result":{"nanos":103394,"millis":0.103394,"status":"passed"},"step":{"line":37,"prefix":"Given","index":0,"text":"path '\/users'"}},{"result":{"nanos":44365356,"millis":44.365356,"status":"passed"},"step":{"line":38,"prefix":"And","index":1,"text":"def newRequest = read(\"..\/resources\/createRequest.json\")"}},{"result":{"nanos":707564,"millis":0.707564,"status":"passed"},"step":{"line":39,"prefix":"And","index":2,"text":"request newRequest"}},{"result":{"nanos":229901366,"millis":229.901366,"status":"passed"},"step":{"line":40,"prefix":"When","index":3,"text":"method POST"},"stepLog":"19:29:38.724 request:\n1 > POST https:\/\/reqres.in\/api\/users\n1 > Content-Type: application\/json; charset=UTF-8\n1 > Content-Length: 34\n1 > Host: reqres.in\n1 > Connection: Keep-Alive\n1 > User-Agent: Apache-HttpClient\/4.5.13 (Java\/17.0.2)\n1 > Accept-Encoding: gzip,deflate\n{\"name\":\"morpheus\",\"job\":\"leader\"}\n\n19:29:38.914 response time in milliseconds: 189\n1 < 201\n1 < Date: Tue, 01 Mar 2022 18:29:38 GMT\n1 < Content-Type: application\/json; charset=utf-8\n1 < Content-Length: 84\n1 < Connection: keep-alive\n1 < X-Powered-By: Express\n1 < Access-Control-Allow-Origin: *\n1 < Etag: W\/\"54-LAgr9Buz9viSirhUNTSI5mGDt8E\"\n1 < Via: 1.1 vegur\n1 < CF-Cache-Status: DYNAMIC\n1 < Expect-CT: max-age=604800, report-uri=\"https:\/\/report-uri.cloudflare.com\/cdn-cgi\/beacon\/expect-ct\"\n1 < Report-To: {\"endpoints\":[{\"url\":\"https:\\\/\\\/a.nel.cloudflare.com\\\/report\\\/v3?s=gM11v7C0PflLjvzCGn7ZITQnv10blKv3YilEwk8YEwkWuCP67qiIpGx20IUNihx3PgLxBNXapppcHf6si4tXKGzZl%2F0ShWKd0AgxyjuRsLXSx8z0f3Lh7RJIUpE%3D\"}],\"group\":\"cf-nel\",\"max_age\":604800}\n1 < NEL: {\"success_fraction\":0,\"report_to\":\"cf-nel\",\"max_age\":604800}\n1 < Server: cloudflare\n1 < CF-RAY: 6e53f595f9b68895-LHR\n1 < alt-svc: h3=\":443\"; ma=86400, h3-29=\":443\"; ma=86400\n{\"name\":\"morpheus\",\"job\":\"leader\",\"id\":\"482\",\"createdAt\":\"2022-03-01T18:29:38.933Z\"}\n\n"},{"result":{"nanos":14206,"millis":0.014206,"status":"passed"},"step":{"line":41,"prefix":"Then","index":4,"text":"status 201"}},{"result":{"nanos":14129625,"millis":14.129625,"status":"passed"},"step":{"line":42,"prefix":"And","index":5,"text":"print response"},"stepLog":"19:29:38.928 [print] {\n  \"name\": \"morpheus\",\n  \"job\": \"leader\",\n  \"id\": \"482\",\n  \"createdAt\": \"2022-03-01T18:29:38.933Z\"\n}\n \n"},{"result":{"nanos":989573,"millis":0.989573,"status":"passed"},"step":{"line":43,"prefix":"And","index":6,"text":"match response.name == 'morpheus'"}},{"result":{"nanos":718061,"millis":0.718061,"status":"passed"},"step":{"line":44,"prefix":"And","index":7,"text":"match response.job == 'leader'"}},{"result":{"nanos":381065,"millis":0.381065,"status":"passed"},"step":{"line":45,"prefix":"And","index":8,"text":"match response.id != null"}},{"result":{"nanos":338984,"millis":0.338984,"status":"passed"},"step":{"line":46,"prefix":"And","index":9,"text":"match response.createdAt != null"}}],"executorName":"main","line":36,"name":"POST, CREATE","description":"","durationMillis":291.876204,"startTime":1646159378638,"failed":false,"refId":"[3:36]","endTime":1646159378932,"exampleIndex":-1},{"sectionIndex":3,"stepResults":[{"result":{"nanos":157336,"millis":0.157336,"status":"passed"},"step":{"background":true,"line":4,"prefix":"*","index":0,"text":"url 'https:\/\/reqres.in\/api'"}},{"result":{"nanos":328282,"millis":0.328282,"status":"passed"},"step":{"line":49,"prefix":"Given","index":0,"text":"path '\/register'"}},{"result":{"nanos":187147,"millis":0.187147,"status":"passed"},"step":{"line":50,"prefix":"And","index":1,"text":"request { email: 'sydney@fife' }"}},{"result":{"nanos":478003237,"millis":478.003237,"status":"passed"},"step":{"line":51,"prefix":"When","index":2,"text":"method POST"},"stepLog":"19:29:38.939 request:\n1 > POST https:\/\/reqres.in\/api\/register\n1 > Content-Type: application\/json; charset=UTF-8\n1 > Content-Length: 23\n1 > Host: reqres.in\n1 > Connection: Keep-Alive\n1 > User-Agent: Apache-HttpClient\/4.5.13 (Java\/17.0.2)\n1 > Accept-Encoding: gzip,deflate\n{\"email\":\"sydney@fife\"}\n\n19:29:39.415 response time in milliseconds: 475\n1 < 400\n1 < Date: Tue, 01 Mar 2022 18:29:39 GMT\n1 < Content-Type: application\/json; charset=utf-8\n1 < Content-Length: 28\n1 < Connection: keep-alive\n1 < X-Powered-By: Express\n1 < Access-Control-Allow-Origin: *\n1 < Etag: W\/\"1c-NmpazMScs9tOqR7eDEesn+pqC9Q\"\n1 < Via: 1.1 vegur\n1 < CF-Cache-Status: DYNAMIC\n1 < Expect-CT: max-age=604800, report-uri=\"https:\/\/report-uri.cloudflare.com\/cdn-cgi\/beacon\/expect-ct\"\n1 < Report-To: {\"endpoints\":[{\"url\":\"https:\\\/\\\/a.nel.cloudflare.com\\\/report\\\/v3?s=gCxZogXwY1lW5HYhQNrlaRQGfkIlnT94J5Hg6F%2FBpjFvULVLFJWMtrm8k5ph9pCUmD4JMM%2FZCwS3l5DkV%2FpcA7PDelcuBIeurxCyn63scfUhsFa1sjPNQGnwcRc%3D\"}],\"group\":\"cf-nel\",\"max_age\":604800}\n1 < NEL: {\"success_fraction\":0,\"report_to\":\"cf-nel\",\"max_age\":604800}\n1 < Server: cloudflare\n1 < CF-RAY: 6e53f599390af3fb-LHR\n1 < alt-svc: h3=\":443\"; ma=86400, h3-29=\":443\"; ma=86400\n{\"error\":\"Missing password\"}\n\n"},{"result":{"nanos":15333,"millis":0.015333,"status":"passed"},"step":{"line":52,"prefix":"Then","index":3,"text":"status 400"}},{"result":{"nanos":830165,"millis":0.830165,"status":"passed"},"step":{"line":53,"prefix":"And","index":4,"text":"print response"},"stepLog":"19:29:39.417 [print] {\n  \"error\": \"Missing password\"\n}\n \n"},{"result":{"nanos":1610951,"millis":1.610951,"status":"passed"},"step":{"line":54,"prefix":"And","index":5,"text":"match response.error == 'Missing password'"}}],"line":58,"description":"","durationMillis":481.132451,"failed":false,"executorName":"main","name":"POST, REGISTER \u2013 UNSUCCESSFUL","startTime":1646159378937,"refId":"[4.1:58]","endTime":1646159379419,"exampleData":{"email":"'sydney@fife'","error":"'Missing password'"},"exampleIndex":0},{"sectionIndex":4,"stepResults":[{"result":{"nanos":264316,"millis":0.264316,"status":"passed"},"step":{"background":true,"line":4,"prefix":"*","index":0,"text":"url 'https:\/\/reqres.in\/api'"}},{"result":{"nanos":183589,"millis":0.183589,"status":"passed"},"step":{"line":61,"prefix":"Given","index":0,"text":"path '\/users'"}},{"result":{"nanos":570678,"millis":0.570678,"status":"passed"},"step":{"line":62,"prefix":"And","index":1,"text":"param page = 2"}},{"result":{"nanos":134785957,"millis":134.785957,"status":"passed"},"step":{"line":63,"prefix":"When","index":2,"text":"method GET"},"stepLog":"19:29:39.429 request:\n1 > GET https:\/\/reqres.in\/api\/users?page=2\n1 > Host: reqres.in\n1 > Connection: Keep-Alive\n1 > User-Agent: Apache-HttpClient\/4.5.13 (Java\/17.0.2)\n1 > Accept-Encoding: gzip,deflate\n\n\n19:29:39.562 response time in milliseconds: 132\n1 < 200\n1 < Date: Tue, 01 Mar 2022 18:29:39 GMT\n1 < Content-Type: application\/json; charset=utf-8\n1 < Transfer-Encoding: chunked\n1 < Connection: keep-alive\n1 < X-Powered-By: Express\n1 < Access-Control-Allow-Origin: *\n1 < Etag: W\/\"406-ut0vzoCuidvyMf8arZpMpJ6ZRDw\"\n1 < Via: 1.1 vegur\n1 < Cache-Control: max-age=14400\n1 < CF-Cache-Status: HIT\n1 < Age: 3568\n1 < Expect-CT: max-age=604800, report-uri=\"https:\/\/report-uri.cloudflare.com\/cdn-cgi\/beacon\/expect-ct\"\n1 < Report-To: {\"endpoints\":[{\"url\":\"https:\\\/\\\/a.nel.cloudflare.com\\\/report\\\/v3?s=ZtjLoViIbVhZYIycCjJmSlJbWvtJUj%2BInqIkxgSTujqhTBTarAp1OJHs7y%2BPlBJ2I3cvWcrOPj%2Fgug%2BamK4%2B%2FKsevV8qwlRWE9l3axjezl9%2FsigsNb23t6fqMXo%3D\"}],\"group\":\"cf-nel\",\"max_age\":604800}\n1 < NEL: {\"success_fraction\":0,\"report_to\":\"cf-nel\",\"max_age\":604800}\n1 < Vary: Accept-Encoding\n1 < Server: cloudflare\n1 < CF-RAY: 6e53f59a5cb17737-LHR\n1 < alt-svc: h3=\":443\"; ma=86400, h3-29=\":443\"; ma=86400\n{\"page\":2,\"per_page\":6,\"total\":12,\"total_pages\":2,\"data\":[{\"id\":7,\"email\":\"michael.lawson@reqres.in\",\"first_name\":\"Michael\",\"last_name\":\"Lawson\",\"avatar\":\"https:\/\/reqres.in\/img\/faces\/7-image.jpg\"},{\"id\":8,\"email\":\"lindsay.ferguson@reqres.in\",\"first_name\":\"Lindsay\",\"last_name\":\"Ferguson\",\"avatar\":\"https:\/\/reqres.in\/img\/faces\/8-image.jpg\"},{\"id\":9,\"email\":\"tobias.funke@reqres.in\",\"first_name\":\"Tobias\",\"last_name\":\"Funke\",\"avatar\":\"https:\/\/reqres.in\/img\/faces\/9-image.jpg\"},{\"id\":10,\"email\":\"byron.fields@reqres.in\",\"first_name\":\"Byron\",\"last_name\":\"Fields\",\"avatar\":\"https:\/\/reqres.in\/img\/faces\/10-image.jpg\"},{\"id\":11,\"email\":\"george.edwards@reqres.in\",\"first_name\":\"George\",\"last_name\":\"Edwards\",\"avatar\":\"https:\/\/reqres.in\/img\/faces\/11-image.jpg\"},{\"id\":12,\"email\":\"rachel.howell@reqres.in\",\"first_name\":\"Rachel\",\"last_name\":\"Howell\",\"avatar\":\"https:\/\/reqres.in\/img\/faces\/12-image.jpg\"}],\"support\":{\"url\":\"https:\/\/reqres.in\/#support-heading\",\"text\":\"To keep ReqRes free, contributions towards server costs are appreciated!\"}}\n\n"},{"result":{"nanos":14702,"millis":0.014702,"status":"passed"},"step":{"line":64,"prefix":"Then","index":3,"text":"status 200"}},{"result":{"nanos":1288237,"millis":1.288237,"status":"passed"},"step":{"line":65,"prefix":"And","index":4,"text":"print response"},"stepLog":"19:29:39.564 [print] {\n  \"page\": 2,\n  \"per_page\": 6,\n  \"total\": 12,\n  \"total_pages\": 2,\n  \"data\": [\n    {\n      \"id\": 7,\n      \"email\": \"michael.lawson@reqres.in\",\n      \"first_name\": \"Michael\",\n      \"last_name\": \"Lawson\",\n      \"avatar\": \"https:\/\/reqres.in\/img\/faces\/7-image.jpg\"\n    },\n    {\n      \"id\": 8,\n      \"email\": \"lindsay.ferguson@reqres.in\",\n      \"first_name\": \"Lindsay\",\n      \"last_name\": \"Ferguson\",\n      \"avatar\": \"https:\/\/reqres.in\/img\/faces\/8-image.jpg\"\n    },\n    {\n      \"id\": 9,\n      \"email\": \"tobias.funke@reqres.in\",\n      \"first_name\": \"Tobias\",\n      \"last_name\": \"Funke\",\n      \"avatar\": \"https:\/\/reqres.in\/img\/faces\/9-image.jpg\"\n    },\n    {\n      \"id\": 10,\n      \"email\": \"byron.fields@reqres.in\",\n      \"first_name\": \"Byron\",\n      \"last_name\": \"Fields\",\n      \"avatar\": \"https:\/\/reqres.in\/img\/faces\/10-image.jpg\"\n    },\n    {\n      \"id\": 11,\n      \"email\": \"george.edwards@reqres.in\",\n      \"first_name\": \"George\",\n      \"last_name\": \"Edwards\",\n      \"avatar\": \"https:\/\/reqres.in\/img\/faces\/11-image.jpg\"\n    },\n    {\n      \"id\": 12,\n      \"email\": \"rachel.howell@reqres.in\",\n      \"first_name\": \"Rachel\",\n      \"last_name\": \"Howell\",\n      \"avatar\": \"https:\/\/reqres.in\/img\/faces\/12-image.jpg\"\n    }\n  ],\n  \"support\": {\n    \"url\": \"https:\/\/reqres.in\/#support-heading\",\n    \"text\": \"To keep ReqRes free, contributions towards server costs are appreciated!\"\n  }\n}\n \n"},{"result":{"nanos":1269278,"millis":1.269278,"status":"passed"},"step":{"line":66,"prefix":"And","index":5,"text":"def userOnList = get[0] response.data[?(@.id==11)]"}},{"result":{"nanos":182844,"millis":0.182844,"status":"passed"},"step":{"line":67,"prefix":"Given","index":6,"text":"path '\/users'"}},{"result":{"nanos":8696309,"millis":8.696309,"status":"passed"},"step":{"line":68,"prefix":"And","index":7,"text":"path '\/' + 11"}},{"result":{"nanos":125023922,"millis":125.023922,"status":"passed"},"step":{"line":69,"prefix":"When","index":8,"text":"method GET"},"stepLog":"19:29:39.577 request:\n2 > GET https:\/\/reqres.in\/api\/users\/11\n2 > Host: reqres.in\n2 > Connection: Keep-Alive\n2 > User-Agent: Apache-HttpClient\/4.5.13 (Java\/17.0.2)\n2 > Accept-Encoding: gzip,deflate\n\n\n19:29:39.700 response time in milliseconds: 122\n2 < 200\n2 < Date: Tue, 01 Mar 2022 18:29:39 GMT\n2 < Content-Type: application\/json; charset=utf-8\n2 < Transfer-Encoding: chunked\n2 < Connection: keep-alive\n2 < X-Powered-By: Express\n2 < Access-Control-Allow-Origin: *\n2 < Etag: W\/\"11e-\/ce0hUxrHiq225jAM88pfKCXCL4\"\n2 < Via: 1.1 vegur\n2 < Cache-Control: max-age=14400\n2 < CF-Cache-Status: HIT\n2 < Age: 3516\n2 < Expect-CT: max-age=604800, report-uri=\"https:\/\/report-uri.cloudflare.com\/cdn-cgi\/beacon\/expect-ct\"\n2 < Report-To: {\"endpoints\":[{\"url\":\"https:\\\/\\\/a.nel.cloudflare.com\\\/report\\\/v3?s=3Yu2uE4rtnYtb3L3qFTh%2BQVICGp8Kh0e%2F82zny5lirQynSxjVu86Rtflr6kkQ1q9b5E9CL717Gi3%2F%2FgSLm5GiQN0BtyYRl%2BCSmjYakfcxIjttP%2FeEGbmGZhyNWY%3D\"}],\"group\":\"cf-nel\",\"max_age\":604800}\n2 < NEL: {\"success_fraction\":0,\"report_to\":\"cf-nel\",\"max_age\":604800}\n2 < Vary: Accept-Encoding\n2 < Server: cloudflare\n2 < CF-RAY: 6e53f59b4ef671c9-LHR\n2 < alt-svc: h3=\":443\"; ma=86400, h3-29=\":443\"; ma=86400\n{\"data\":{\"id\":11,\"email\":\"george.edwards@reqres.in\",\"first_name\":\"George\",\"last_name\":\"Edwards\",\"avatar\":\"https:\/\/reqres.in\/img\/faces\/11-image.jpg\"},\"support\":{\"url\":\"https:\/\/reqres.in\/#support-heading\",\"text\":\"To keep ReqRes free, contributions towards server costs are appreciated!\"}}\n\n"},{"result":{"nanos":13424,"millis":0.013424,"status":"passed"},"step":{"line":70,"prefix":"Then","index":9,"text":"status 200"}},{"result":{"nanos":1033654,"millis":1.033654,"status":"passed"},"step":{"line":71,"prefix":"And","index":10,"text":"print response"},"stepLog":"19:29:39.701 [print] {\n  \"data\": {\n    \"id\": 11,\n    \"email\": \"george.edwards@reqres.in\",\n    \"first_name\": \"George\",\n    \"last_name\": \"Edwards\",\n    \"avatar\": \"https:\/\/reqres.in\/img\/faces\/11-image.jpg\"\n  },\n  \"support\": {\n    \"url\": \"https:\/\/reqres.in\/#support-heading\",\n    \"text\": \"To keep ReqRes free, contributions towards server costs are appreciated!\"\n  }\n}\n \n"},{"result":{"nanos":414796,"millis":0.414796,"status":"passed"},"step":{"line":72,"prefix":"And","index":11,"text":"def singleUser = response.data"}},{"result":{"nanos":1903625,"millis":1.903625,"status":"passed"},"step":{"line":73,"prefix":"And","index":12,"text":"match userOnList.id == singleUser.id"}},{"result":{"nanos":1601229,"millis":1.601229,"status":"passed"},"step":{"line":74,"prefix":"And","index":13,"text":"match userOnList.email == singleUser.email"}},{"result":{"nanos":1069545,"millis":1.069545,"status":"passed"},"step":{"line":75,"prefix":"And","index":14,"text":"match userOnList.first_name == singleUser.first_name"}},{"result":{"nanos":965365,"millis":0.965365,"status":"passed"},"step":{"line":76,"prefix":"And","index":15,"text":"match userOnList.last_name == singleUser.last_name"}},{"result":{"nanos":1118440,"millis":1.11844,"status":"passed"},"step":{"line":77,"prefix":"And","index":16,"text":"match userOnList.avatar == singleUser.avatar"}}],"line":82,"description":"","durationMillis":280.39991,"failed":false,"executorName":"main","name":"GET, LIST USERS + GET, SINGLE USER","startTime":1646159379426,"refId":"[5.1:82]","endTime":1646159379710,"exampleData":{"userId":"11"},"exampleIndex":0}],"callDepth":0,"name":"'Karate demo tests'","description":"","resultDate":"2022-03-01 07:29:39 pm","durationMillis":2060.432174,"passedCount":5}